names,type
Valdosta State University Rugby Club,FP
Indian Naval Hydrographic Department,FP
"Delta State University, Abraka",FP
Commission to preserve national monuments of Bosnia and Herzegovina,FP
Universidad Tecnológica de Tula-Tepeji,FP
National Eagle Center,FP
Jacob K. Javits Lecture Center,FP
Waljat Colleges of Applied Sciences,FP
Presidential Secretariat,FP
"Rutgers University Department of African, Middle Eastern, and South Asian Languages and Literatures",FP
University of Fribourg,FP
Vilnius University Faculty of Communication,FP
Sleepytime Gorilla Museum,FP
USU-Brigham City,FP
Amur State University,FP
University of New South Wales Regiment,FP
Museum Store Company,FP
Chicopee Public Library,FP
Metropolitan Transportation Authority,FP
North Kent College,FP
Office of Consumer Counsel,FP
Parliament of Lebanon,FP
Case Western Reserve University,FP
Stock.xchng,FP
Centralized Public Grievance Redress and Monitoring System,FP
University of Northwestern Ohio,FP
"Journalism, Media and Communication, University of Central Lancashire",FP
Mexico High School (New York),FP
Saint Joseph College Seminary,FP
Scarborough Sixth Form College,FP
Casa de Moneda de la República Argentina,FP
Swaner EcoCenter,FP
Puerto Rico Department of Treasury,FP
Ciudad Universitaria,FP
Pacific Southwest Railway Museum,FP
Universidad Central del Este,FP
Pioneer Works,FP
Champlain College St. Lawrence,FP
"National Weather Service Lincoln, Illinois",FP
Jane Cameron National Archives,FP
USU Botanical Center,FP
German Chancellery,FP
Escuela Superior Politecnica del Litoral,FP
San Antonio Winery,FP
The Gurkha Museum,FP
Donald W. Reynolds School of Journalism,FP
Howsham Hall,FP
Puerto Rico Department of Economic Development and Commerce,FP
Cégep Garneau,FP
Brittain Dining Hall,FP
826NYC,FP
Ferrania,FP
Odum Library,FP
Thomas G. Carpenter Library,FP
Danish National Archives,FP
Jet Propulsion Laboratory,FP
Collège Sainte-Marie de Montréal,FP
State Archive of the Russian Federation,FP
Weingut von Othegraven,FP
NPTC Group,FP
Rubyville Elementary School,FP
Kennys Bookshop & Art Gallery,FP
"Cardiff School of Journalism, Media and Cultural Studies",FP
Emma E. Booker Elementary School,FP
Tamrac,FP
Lone Star College–North Harris,FP
Art You Grew Up With,FP
Robert and Judi Newman Center for Performing Arts,FP
Godden Mackay Logan,FP
Kensington Regiment (Princess Louise's),FP
"The Presbyterian College, Montreal",FP
87th Infantry Division (National Revolutionary Army),FP
National Commission for Culture and the Arts,FP
Hines College of Architecture,FP
Foreign and Commonwealth Office,FP
Ministry of Industrial policy (Ukraine),FP
University of Florida Marston Science Library,FP
Al-Mujahidiyah Madrasa,FP
Campus of the University of Montana,FP
"State Central Library, Kerala",FP
Pakistan Maritime Museum,FP
Prussian Heritage Image Archive,FN
Municipal Library of Prague,FN
Foster Business Library,FN
"Royal Library, Denmark",FN
Moravian Library,FN
Thomas Scott Buckham Memorial Library,FN
Rijksmuseum Research Library,FN
Khuda Bakhsh Oriental Library,FN
Chatfield Public Library,FN
Yale University Library,FN
Billy Ireland Cartoon Library & Museum,FN
Library of Congress,FN
Osler Library of the History of Medicine,FN
Herzog August Library,FN
Hong Kong University of Science and Technology Library,FN
Ghent University Library,FN
Kyoto Prefectural Library,FN
Spiratone,FN
The People's Library,FN
Johannesburg City Library,FN
Middle Georgia Regional Library System,FN
Agency for the Legal Deposit Libraries,FN
Joliet Public Library,FN
ITU Mustafa Inan Library,FN
Jaffna Public Library,FN
Arenapal,FN
Delhi Public Library,FN
Pride Library,FN
Production Paradise,FN
James Prendergast Library,FN
Princeton University Library,FN
Vancouver Public Library,FN
Wuhan University Library,FN
Seeley G. Mudd Manuscript Library,FN
University of Zambia Library,FN
Brooklyn Public Library,FN
Hindustan Photo Films,FN
Kanazawa Umimirai Library,FN
Kearny Public Library,FN
Kumanovo Library,FN
"University of California, Los Angeles Library",FN
Mead Public Library,FN
Sheffield Archives,FN
Boston Public Library,FN
Hainan Library,FN
National Library of Iran,FN
Library of the Free University of Bozen-Bolzano,FN
Pritzker Military Museum & Library,FN
National Library of Norway,FN
Maternal and Child Health Library,FN
Morris Library (SIUC),FN
Detroit Public Library,FN
Auraria Library,FN
Sainte-Barbe Library,FN
National Library of Ireland,FN
Tchaikovsky House in Taganrog,FN
Australian National University Library,FN
Grace A. Dow Memorial Library,FN
Toronto Public Library,FN
Christchurch City Libraries,FN
Gazi Husrev-beg Library,FN
Traditional Knowledge Digital Library,FN
Southold Free Library,FN
Library of Ashurbanipal,FN
State Library of Ohio,FN
Working Class Movement Library,FN
Biblioteca Las Américas,FN
Jurong Regional Library,FN
Santi Pracha Dhamma Library,FN
St. Louis Mercantile Library,FN
Archaeology South-East,FN
Great River Regional Library,FN
New York Law Institute,FN
Shaker Heights Public Library,FN
Samuel Read Hall Library,FN
National Library of Bangladesh,FN
German Central Library for the Blind,FN
Bibliothèque interuniversitaire de santé,FN
Biblioteca Nacional de Portugal,FN
Tualatin Public Library,FN
NOAA Central Library,FN
Calgary Tool Library,FN
Busolwe Public Library,FN
LumiQuest,FN
Chicago Public Library,FN
Churchill Archives Centre,FN
Gorky Library (Ryazan),FN
Gordon W. Prange Collection,FN
Bibliothèque Inguimbertine,FN
Sandwell Community History and Archives Service,FN
Vernon Systems,FN
State Library of Massachusetts,FN
Margarita Rudomino All-Russia State Library for Foreign Literature,FN
National Research Council Canada National Science Library,FN
Nanpura Parsi Library,FN
National Library of South Africa,FN
Atlanta–Fulton Public Library System,FN
Picaboo,FN
Orange County Library System,FN
Luis Ángel Arango Library,FN
German National Library of Medicine,FN
Gowthami Grandhalayam,FN
Kunstbibliothek Berlin,FN
New York Public Library,FN
London Stereoscopic and Photographic Company,FN
Supreme Court of Pakistan library,FN
Umeå University Library,FN
Oil Creek Library District,FN
Ritz Camera Centers,FN
Cambridge University Museum of Zoology,FN
National Library of China,FN
Oxford Archaeology,FN
Baden State Library,FN
La Guardia and Wagner Archives,FN
Nautilus Productions,FN
Göttingen State and University Library,FN
William Ready Division of Archives and Research Collections,FN
British Library,FN
Amerika-Gedenkbibliothek,FN
Plungė District Municipal Public Library,FN
Quatrefoil Library,FN
Panjab Digital Library,FN
Sultan Qaboos University Library,FN
Library and Archives Canada,FN
Hamilton Library (Hawaii),FN
Smithsonian Libraries,FN
National Library of the Czech Republic,FN
Korea University Library System,FN
Gustav Landauer Library Witten,FN
University College Dublin Library,FN
