names,type
Foster Business Library,FP
"Braithwaite, Burn & Jessop Construction Company",FP
Penguin Books,FP
Envirochemie,FP
Merritt-Chapman & Scott,FP
Meidensha,FP
Rom Eiendom,FP
Severud Associates,FP
Nello L. Teer Company,FP
La Manufacture Cogolin,FP
New Holland Agriculture,FP
Waring Brothers,FP
Bentley Systems,FP
Arnold Laver,FP
Africa Israel Investments,FP
Ircon International,FP
LEED Professional Exams,FP
Baltimore Green Construction,FP
SCAFCO,FP
Rustler Yachts,FP
Çukurova (construction firm),FP
Unibail-Rodamco,FP
Gio. Ansaldo & C.,FP
IBI Group,FP
Daito Trust Construction,FP
International Engineering Public Company Limited,FP
Greenply,FP
OKBM Afrikantov,FP
Institute for Architecture and Urban Studies,FP
Odebrecht,FP
General Services Administration,FP
Permak,FP
Market Harborough Building Society,FP
Chongqing International Construction Corporation,FP
Telechips,FP
Wrought Iron Bridge Company,FP
Potok (company),FP
The Castle Group,FP
AEC (Alashki Engineering Constructions),FP
Taylor Woodrow,FP
International Union of Operating Engineers,FP
Tver Garment Factory,FP
Magoxy Infra,FP
Logix Group,FP
Anabuki Construction,FP
Flad Architects,FP
"M. D. Moody & Sons, Inc.",FP
Hoare Lea,FP
Keepmoat,FP
China Harbour Engineering,FP
Polin Waterparks,FP
Oscar Riera Ojeda Publishers,FP
COPASA,FP
General Electric,FP
William Press Group,FP
China General Technology Group,FP
Artha Group,FP
The Allen Group,FP
The Beck Group,FP
China Aluminum International Engineering,FP
Aliansce Shopping Centers,FP
Odinsa,FP
Ferretti Group,FP
Elliott Brothers (builders merchant),FP
Pauling & Co.,FP
Kirby Building Systems,FP
GreenCE,FP
Princeton Architectural Press,FP
John Lilley and Gillie Ltd,FP
Crowder Construction Company,FP
Cembrit,FP
Abertis,FP
Fabryka Samochodów Osobowych,FP
Skanska,FN
Swanson Industries,FN
Blue Circle Industries,FN
Gladstone Homes,FN
Yanjian Group,FN
Padideh Shandiz,FN
Willbros Group,FN
Jamuna Group,FN
Cumming Corporation,FN
Neal Communities,FN
JCB (company),FN
Ledcor Group of Companies,FN
Concord Group,FN
Siemens Building Technologies,FN
Yamaltransstroy,FN
Prenda Law,FN
Beazer,FN
URS Corporation,FN
Olympia Capital Holdings,FN
SmartUse,FN
Surya Semesta Internusa,FN
Hidroconstrucția,FN
Cooper Research Technology,FN
Arme Construction Company,FN
HOK (firm),FN
Odisha Construction Corporation,FN
Ibstock plc,FN
Complant,FN
SENER,FN
E.G.F.,FN
Zamil Industrial,FN
Esenwein & Johnson,FN
ICT Group (Russia),FN
Architecture for Humanity,FN
HJ Martin and Son,FN
CFE (Belgium),FN
Shea Homes,FN
Maharashtra State Road Development Corporation,FN
McLean Homes,FN
ENMTP,FN
China Railway Erju,FN
FLSmidth,FN
Babcock Borsig Service,FN
Thompson Berwick and Pratt and Partners,FN
Casey Industrial,FN
Rocheford & Gould,FN
LGI Homes,FN
Eurocement group,FN
COMSA,FN
STV Group (United States),FN
Wong Tung & Partners,FN
Terex,FN
H. J. High Construction,FN
Semapa,FN
Marion Power Shovel Company,FN
Austin Australia,FN
Binani Industries,FN
Sandahlsbolagen,FN
Permasteelisa,FN
Nikken Sekkei,FN
Severfield,FN
Nakano Corporation,FN
Soheil Mosun,FN
Point-of-Rental Systems,FN
Bobcat Company,FN
Walt Disney Imagineering,FN
M.T. Broyhill & Sons Corporation,FN
Bin Quraya,FN
DSI Samson Group,FN
Al Ghurair Investment,FN
Richard Pieris & Company PLC,FN
Volvo Construction Equipment,FN
Reversible destiny,FN
Penta-Ocean,FN
Implenia,FN
Solel Boneh,FN
American Industries,FN
Innowood,FN
Al Gamil,FN
EFCO,FN
Urbi,FN
Confidence Group,FN
Reggiane,FN
Welspun Corp,FN
Sichuan Road and Bridge Group,FN
Uponor,FN
Carillion,FN
Aggreko,FN
Tokuyama Corporation,FN
STFA Group,FN
PDG S.A.,FN
ATP architects engineers,FN
Teichert (company),FN
Demirören Group,FN
DLR Group,FN
Aggregate Industries,FN
Leonard Fairclough & Son,FN
Hima Cement Limited,FN
Day & Zimmermann,FN
WIETC,FN
Toyo Engineering Corporation,FN
Casas GEO,FN
Gozar Planners Architect,FN
OEM International,FN
Ideal Homes (US housebuilder),FN
Griffon Corporation,FN
Bulley & Andrews,FN
Buildbase,FN
SalfaCorp,FN
Lauren Engineers & Constructors,FN
Sweett Group,FN
Sobha Ltd.,FN
British Insulated Callender's Cables,FN
Zamil Steel Holding,FN
Tarmac Building Products,FN
NTT Facilities,FN
ConDrain,FN
Iran Combine Manufacturing Company,FN
Ube Industries,FN
Jewson,FN
Mer Group,FN
Lonking,FN
Sunway Group,FN
"NVR, Inc.",FN
Manitowoc Cranes,FN
