names,type
Wabush Lake Railway,FP
BiRite Foodservice Distributors,FP
Royal Football Fund,FP
Army of the Coasts of Brest,FP
SEAT Sport,FP
Blue Sky Vineyards,FP
Shark (helmet manufacturer),FP
So Percussion,FP
Pacific Fur Company,FP
Hiroshima Rapid Transit,FP
Zink Cars,FP
Patriots Jet Team,FP
GEN Corporation,FP
Trinity Army,FP
Juan Valdez Café,FP
DP World,FP
DoorDash,FP
Le Rugbynistère,FP
Senate of Poland,FP
XXXVII Corps (United States),FP
Ewenny Pottery,FP
National Council of Provinces,FP
British Airline Pilots' Association,FP
Alaska Air Group,FP
Beatrix Ong,FP
Airports Company South Africa,FP
Defy Appliances,FP
Council of Five Hundred,FP
Fluid Motorsport Development,FP
Luzerne Music Center,FP
Litocar,FP
Verne Global,FP
Africa Israel Investments,FP
St. Joseph's Indian School,FP
Nanjing Automobile,FP
Johann-Wolfgang-von-Goethe-Gymnasium,FP
Reserve Police Battalion 101,FP
Sakésho,FP
Jigawa State House of Assembly,FP
Loi Hein Company,FP
MusclePharm,FP
Allied Pilots Association,FP
HHLA,FP
Schichau-Werke,FP
California Horse Racing Board,FP
OZ Group,FP
Ruff 'n' Tumble (clothing),FP
Abbott family,FP
Meadow Fresh,FP
Myford,FP
Gulf States Toyota Distributors,FP
Progress Rail Services,FP
US Airways Shuttle,FP
The National Fund,FP
Coca-Cola Zero Belfast Bikes,FP
ZR Speaker Lab,FP
Pachora Municipal Council,FP
The Doyle Fan Club,FP
Chope,FP
Special Olympics Cameroon,FP
Gnarkill,FP
Airfix,FP
Briggs Marine,FP
St Kilda Cycling Club,FP
Major League Soccer Players Union,FP
Århus Statsgymnasium,FP
Sierra Springs,FP
Parliament of the Bahamas,FP
Chinese Voice,FP
"Todd Pacific Shipyards, Los Angeles Division",FP
NLC Workers Progressive Union,FP
Feiyue,FP
"Department for Culture, Media and Sport",FP
A Girl and A Gun,FP
Neveneffecten (cabaret),FP
Jimmy Watson Memorial Trophy,FP
Panathlon Foundation,FP
25th Armored Division (United States),FP
Odebrecht,FP
Munich S-Bahn,FP
Australian Men's Shed Association,FP
Sainte-Barbe Library,FP
No Mountains Poetry Project,FP
Ministry of Natural Resources and Tourism,FP
Committee of the States,FP
Regatta (clothing),FP
Flocafé,FP
Leeward Islands Airline Pilots Association,FP
British Birdwatching Fair,FP
Mineworkers Union of Namibia,FP
Sport Against Racism Ireland,FP
Sri Lanka Ecotourism Foundation,FP
Montegrappa,FP
Weston Field Athletic Complex,FP
Pitsos,FP
Imperial Colonial Office,FP
Coffeeheaven,FP
Getty Oil,FP
Ithaca College School of Humanities and Sciences,FP
"Kendriya Vidyalaya Hebbal, Bangalore",FP
Matajer Malls,FP
Rugby League Professionals Association,FP
Kansas Turnpike Authority,FP
Stobart Group,FP
Backes & Strauss,FP
Xenia Hotels & Resorts,FP
National Tennis Club,FP
St. Thomas-St. Vincent Orphanage,FP
List of Gangan Comics manga franchises,FP
Library of Ashurbanipal,FP
Thresher & Glenny,FP
ClueJob,FP
85C Bakery Cafe,FP
Okinawa Actors School,FP
National Army (Uruguay),FP
Yandex,FP
South American Bird Fair,FP
Wellcome,FP
Irish Guard (Notre Dame),FP
TV Record Europa (subsidiary),FP
Lebanese Army High Center for Military Sport,FP
Irish Rugby Union Players Association,FP
Birchwood Automotive Group,FP
Sappy Records,FP
American Industries,FP
Half-Fast Walking Club,FP
W.D. & H.O. Wills,FP
The Witch Trials,FP
Cross-Strait Tourism Exchange Association,FP
Sportsman's Warehouse,FP
Swiss School of Tourism and Hospitality,FP
Hermes Group,FP
General Logistics Systems,FP
Provincial Reconstruction Team Meymaneh,FP
T. K. Madhava Memorial College,FP
E. Tautz & Sons,FP
Vennli,FP
J. B. Hunt,FP
Professional Hockey Players' Association,FP
Chicken of the Sea,FP
Unicomer Group,FP
PPU (union),FP
Vanda & Young,FP
Chambers stove,FP
Sandwell Community History and Archives Service,FP
Great Northern Concrete Toboggan Race,FP
Birkenstock,FP
Ceriani,FP
Karen Baptist Convention,FP
Archbishop Beck Catholic Sports College,FP
Carolina Piedmont Railroad,FP
Santa Fe Brewing Company,FP
Bandido (supergroup),FP
XS Platinum,FP
Tuen Mun Rural Committee,FP
De Tomaso,FP
Maryland Drydock Company,FP
Renntech,FP
Santa Feria,FP
Universiti Teknologi MARA System,FP
Hydrapak,FP
Shurgard Storage Centers,FP
Nowy Styl Group,FP
Counties Ship Management,FP
MediaWorks New Zealand,FP
Nationale Postcode Loterij,FP
Harrod UK,FP
Genelux Corporation,FP
Waterbury Career Academy,FP
Chamber of States,FP
TiLite,FP
South African Football Players Union,FP
Eating Italy Food Tours,FP
Cute (Maltese band),FP
Australian Pacific Touring,FP
Senshu University,FP
Department of Tourism (Philippines),FP
Ministry of Tourism and Culture (Malaysia),FP
Clayburn Pottery,FP
Fort Henry Guard,FP
Carchex,FP
Leh district,FP
FLYi,FP
IPM CRSP,FP
La Guardia and Wagner Archives,FP
US Foods,FP
Nobleworks,FP
World Football Insider,FP
Spiderwood Studios,FP
NATO School,FP
Abellio (transport company),FP
Snugg Wetsuits,FP
UCLA Labor Center,FP
Wibault,FP
Square Books,FP
AFL Players Association,FP
Louis Vuitton,FP
Ministry of Youth and Sports (Malaysia),FP
Galvin Green,FP
Faneromeni Square,FP
Flag Hill Winery,FP
Department of Tourism and Resorts of Ajara Autonomous Republic,FP
St. Vincent de Paul Parish School,FP
Ministry of Culture and Tourism (Turkey),FP
Kuranda Scenic Railway,FP
Bryncelyn Brewery,FP
Guildford Spectrum,FP
Lake Champlain Transportation Company,FP
NBC Sports Group,FP
National Hockey League Players' Association,FP
Circle City Conference,FP
Zonamerica,FP
Swedish National Heritage Board,FP
Croatian National Tourist Board,FP
Yoonew,FP
Marin Bikes,FN
Mister Softee,FN
Valdosta State University Rugby Club,FN
Xero Shoes,FN
NEMO Equipment,FN
Wade Shows,FN
Travel Channel,FN
Immaculate Conception High School (Jamaica),FN
Isaly's,FN
Roady's Truck Stops,FN
Temple Square Hospitality,FN
DFB Futsal Cup,FN
S.M. Culture & Contents,FN
Clio Area School District,FN
SBENU,FN
G1 Group,FN
Lourdes Gray Wolves,FN
Royal Enfield,FN
UT Martin Skyhawks,FN
I54,FN
RIH,FN
Genting Singapore,FN
Bombay Sweets,FN
VCU Rams,FN
Dynamo Cover Pro Cycling,FN
Sunbelt Publications,FN
Major League Cricket,FN
American Twenty20 Championship,FN
Cunard Line,FN
Tennessee Volunteers,FN
Grand Sport Group,FN
Walon Sport,FN
OTB Group,FN
Bland Group,FN
Von Zipper,FN
Yogoberry,FN
Beuchat,FN
CheapTickets,FN
Health Beauty Life,FN
PSNI F.C.,FN
Squirrel Systems,FN
Haifa Wild Boars,FN
Padideh Shandiz,FN
YG Entertainment,FN
Independent Indoor Football Alliance,FN
Sri Lanka Air Force Sports Club (cricket),FN
OnlyXO,FN
Civil Air Transport,FN
Royal Mail Steam Packet Company,FN
Killerspin,FN
Huntsville Channel Cats,FN
New Edubiase United F.C.,FN
Webjet,FN
McGill Redmen soccer,FN
Hilton College of Hotel and Restaurant Management,FN
Bryant Bulldogs,FN
Gecina,FN
VisitScotland,FN
Icelolly.com,FN
La Dolfina Polo Team,FN
Hewlett Packard Enterprise Services,FN
Swansea University RFC,FN
Concord Group,FN
Maserati in motorsport,FN
Bowling Green Falcons,FN
Space Adventures,FN
Muthoot,FN
Magic Holidays,FN
Goldilocks Bakeshop,FN
USC Trojans men's rugby,FN
4 Fingers Crispy Chicken,FN
Body Science,FN
Northrop Grumman,FN
Lufttransport,FN
George Khoury Association of Baseball Leagues,FN
OpTic Gaming,FN
Brandeis Judges,FN
FIRST Lego League,FN
WorcesterScene,FN
Tracking the Wild,FN
American Tea Room,FN
Bendle Public Schools,FN
White Star Line,FN
Heritage USA,FN
STX (sports manufacturer),FN
ASICS,FN
South American Road Mile Championships,FN
South Dakota State Jackrabbits,FN
TI Group,FN
Obic Seagulls,FN
Caloi,FN
Welk Resort Group,FN
K2 Sports,FN
International Surrey Company,FN
HolidayIQ.com,FN
Canterbury of New Zealand,FN
Isha Life,FN
Travelyaari,FN
Heine Brothers',FN
Momo (company),FN
Stageco,FN
Leeds Gryphons Ice Hockey Club,FN
Nova Southeastern Sharks,FN
Laurin & Klement,FN
Country Style Cooking,FN
World Series of Poker,FN
Clock Software,FN
Affliction Clothing,FN
Adris grupa,FN
Randy's Donuts,FN
Rocky Mountain Bicycles,FN
Maritime University Field Lacrosse League,FN
WMS Industries,FN
Sammy Corporation,FN
South Australian Regional Leagues,FN
Mr Bean (company),FN
Shanghai Oriental Pearl Media,FN
Cooper Car Company,FN
Diamond Resorts International,FN
Tern (company),FN
Catholic University Cardinals,FN
Woods Coffee,FN
Cannondale Bicycle Corporation,FN
Triumph (TWN),FN
KP Chemik Police,FN
Lazy Magnolia Brewing Company,FN
Hase Spezialräder,FN
Texas Dreams Gymnastics,FN
Inter Cardiff F.C.,FN
Loyola Marymount Lions,FN
European Junior Cup,FN
Newman Jets,FN
Epirotiki Line,FN
FIRST Robotics Competition,FN
Grupo Cisneros,FN
Charles Wells Ltd,FN
Saga plc,FN
Ellsworth Handcrafted Bicycles,FN
GLOBOsapiens,FN
New Haven Chargers,FN
Delaware North,FN
Hall of Fame Tip Off,FN
Wayne State Wildcats,FN
Cycles Devinci,FN
ARINC,FN
Room Key,FN
Barista Lavazza,FN
Inventive Leisure,FN
888casino,FN
UNC Greensboro Spartans,FN
Dryworld,FN
"Marathon Enterprises, Inc.",FN
Incarnate Word Cardinals,FN
Tokyo Gas Creators,FN
Caterham Group,FN
Avia (shoes),FN
Western Oregon Wolves,FN
Montana State Bobcats,FN
Ariel Motorcycles,FN
Carlson Companies,FN
Riverboat Discovery,FN
Refund.me,FN
Arthurian League,FN
Pillow Homes,FN
Michael Jordan's Steakhouse,FN
John Keells Holdings,FN
Sammy's Pizza,FN
Let's Go (book series),FN
Autogrill,FN
Michigan Tech Huskies,FN
Rauland Borg,FN
Cherry Red Airline,FN
Purdue Boilermakers,FN
House of Blues,FN
Stonegate Pub Company,FN
Ibero Cruises,FN
City Sightseeing,FN
Xavier Musketeers,FN
Kukri Sports,FN
K-Swiss,FN
Emperor Entertainment Hotel Limited,FN
Football West State Cup,FN
Regent Seven Seas Cruises,FN
Pfeiffer Falcons,FN
Iowa Big Four men's college basketball,FN
Grounds for Coffee,FN
Sumitomo Rubber Industries,FN
Final Boss (Halo team),FN
Vietnam Airlines,FN
Bluefield College Rams,FN
Professional Gamers League,FN
Tlcbet,FN
Sun Microsystems,FN
California Baptist Lancers,FN
Harding Bisons,FN
Aviareps,FN
Yucaipa Companies,FN
Coolhaus,FN
Applied Science University (basketball team),FN
Italvega,FN
Craven Week,FN
Centurion (bicycle),FN
Bethany Swedes,FN
Holiday & Cruise TV,FN
New Mexico State Aggies,FN
Shorter Hawks,FN
InnSuites Hospitality,FN
Macbeth Footwear,FN
Exel Composites,FN
Southern Air Transport,FN
EXR (clothing),FN
Little Pine (restaurant),FN
Amer Sports,FN
Karmelkorn,FN
Haskell Indian Nations Fighting Indians,FN
Bluefish (company),FN
Logan Thunder (WNBL),FN
Bonfire Snowboarding,FN
Daiichi Kosho Company,FN
Norwegian Cruise Line,FN
Lion Foundation Surf League,FN
HeyBnb,FN
FIRST Tech Challenge,FN
Vail Resorts,FN
J.CO Donuts,FN
History of the Los Angeles Raiders,FN
Sama Dubai,FN
Tanzania Government Flight Agency,FN
Marriott Vacations Worldwide Corporation,FN
The Oriental Land Company,FN
Heublein,FN
The Grilled Cheese Truck,FN
Bad Boy (brand),FN
Shipley Do-Nuts,FN
Oklahoma State Cowboys and Cowgirls,FN
Australian Fast Foods Pty Limited,FN
Ibibo,FN
Armani,FN
"Expedia, Inc.",FN
G. Ērenpreis Bicycle Factory,FN
Border Strikers F.C.,FN
The Leela Group,FN
Moto Hospitality,FN
UFA Sports,FN
Borregos Salvajes – CEM,FN
H. C. Evans,FN
Jasuben Pizza,FN
Mormedi,FN
Ferris State Bulldogs,FN
Lonsdale (clothing),FN
HVS Global Hospitality Services,FN
Rans Designs,FN
Speedway Motorsports,FN
James Madison Dukes,FN
Collegiate Aerial Robotics Demonstration,FN
Panasonic,FN
Virgin Australia Holdings,FN
S.V. Walking Boyz Company,FN
Bellarmine Knights,FN
Coker Tire,FN
Landmark Group,FN
Panjab football team,FN
Hawaii Pacific Sharks,FN
EasyPizza,FN
Wake Forest Demon Deacons,FN
Travelxp,FN
Live Nation (events promoter),FN
Craven Shield,FN
BET UK,FN
Triple Rock Brewery and Alehouse,FN
H&H Bagels,FN
TRYMAX,FN
Grand View Vikings,FN
Fonciere des Regions,FN
Van Dessel Sports,FN
Pacific Mail Steamship Company,FN
Oakville Blue Stars,FN
Tune Group,FN
Ridley Bikes,FN
Celebrity Sports Center,FN
Washington and Lee Generals,FN
Big 5 Sporting Goods,FN
Premiership Rugby Sevens Series,FN
Argo Tea,FN
Greggs,FN
Vladas Knašius Basketball School,FN
Haldiram's,FN
Long Island Nets,FN
Krung Thai Bank F.C.,FN
GuestLogix,FN
Rosewood Hotels & Resorts,FN
Colorado Time Systems,FN
Black Diamond Equipment,FN
Netball Superleague,FN
Qintex,FN
Babcock Mission Critical Services Onshore,FN
Arcos Dorados Holdings,FN
TurnKey Vacation Rentals,FN
Orbitz,FN
Halo Championship Series,FN
Amelia Island Plantation,FN
ARCA Lincoln Welders Truck Series,FN
Vacatia,FN
Liberty Bell Classic (baseball),FN
Junior Kiwis,FN
New Hampshire Wildcats,FN
Washington University Bears,FN
St. Cloud State Huskies,FN
AGV (helmet manufacturer),FN
Shanghai Disney Resort,FN
Impul,FN
Idaho Vandals,FN
Majestic Athletic,FN
ARCA Space Corporation,FN
New Balance,FN
SOMA Fabrications,FN
Stuckey's,FN
Rebel Sport,FN
U.S. National Video Game Team,FN
Cunard-White Star Line,FN
Thomson Cruises,FN
Sabre Corporation,FN
VFS Global,FN
Royal Caribbean Cruises Ltd.,FN
Riley Motor,FN
Wabash Little Giants,FN
AmeriPride Services,FN
Northern Colorado Bears,FN
Paddy Power Betfair,FN
TripAdvisor,FN
Mike Barwis,FN
Circle K,FN
Transport Research Laboratory,FN
Shearings,FN
Rohrbach Brewing Company,FN
Ardent Leisure,FN
Chow's Gymnastics and Dance Institute,FN
Oakthorpe Invitational,FN
Nallabati Raghavendra Rao,FN
Montrose Community Schools,FN
Tablesaver,FN
History of the St. Louis Rams,FN
Opendorse,FN
Cosco (India) Limited,FN
Ventoura,FN
Division 1-A Rugby,FN
Old Dominion Monarchs and Lady Monarchs,FN
The Trump Organization,FN
Ivy Park,FN
Green Tortoise,FN
Mondia,FN
Der Beck,FN
Tourism Holdings Limited,FN
MyGayTrip,FN
Basutoland Ink,FN
NTT Docomo Red Hurricanes,FN
Empire Brewing Company,FN
Tamares Group,FN
All India & South Asia Rugby Tournament,FN
Millennium & Copthorne Hotels,FN
Grand Blanc Community Schools,FN
Baldwin Wallace Yellow Jackets,FN
Panadura Sports Club,FN
Central Connecticut Blue Devils,FN
Oberweis Dairy,FN
Scheels All Sports,FN
Banc De Binary,FN
LUTA Sportswear,FN
Domino's Pizza Group,FN
SteelSeries,FN
CroisiEurope,FN
Eurovegas,FN
The Wendy's Company,FN
HC CSKA Moscow (1996–2002),FN
Wayne's Coffee,FN
U.S. Soccer Development Academy,FN
New Era Cap Company,FN
Boardman Bikes,FN
ProEvents,FN
Évasion,FN
Restaurant Brands,FN
Ikey Tigers,FN
Western Armenia national football team,FN
British League Knockout Cup,FN
Head (company),FN
Russian Travel Guide,FN
Imasco,FN
Showaround,FN
Ecuatoriana de Aviación,FN
Southwestern Moundbuilders,FN
Planet X Limited,FN
Oceania Cruises,FN
Duck Commander,FN
Naisten Salibandyliiga,FN
Warner Royals,FN
Air Force Falcons,FN
Coastal Carolina Chanticleers,FN
Mississippi State Bulldogs,FN
North America 4,FN
OPEN Cycle,FN
West Midlands Volleyball Association,FN
Keyway Air Transport,FN
Rough Guides,FN
Braathens,FN
Crown American,FN
Fodor's,FN
Tours4fun,FN
Pacific Brands,FN
Sports Box,FN
Opel,FN
United Hospitals Lawn Tennis Club,FN
Teany,FN
Minot State Beavers,FN
Long Beach State 49ers,FN
X.A.N. Thessaloniki,FN
Cadwalader's Ice Cream,FN
Port Stephens Pythons,FN
Small Danish Hotels,FN
Princess Cruises,FN
Southeastern Oklahoma State Savage Storm,FN
Florida Gators,FN
XFL,FN
ONGC F.C.,FN
Korean Air,FN
Dipper Dan,FN
History of the Chicago Cardinals,FN
Delaware 87ers,FN
Travel Sentry,FN
Cashcade,FN
SPoT Coffee,FN
Element One,FN
Yeti Cycles,FN
Virgin Voyages,FN
Chipotle Mexican Grill,FN
Boston Tea Party (café chain),FN
Mean Machine RFC,FN
Baxters,FN
"Atlanta Hawks, LLC",FN
SIA Engineering Company,FN
Shinola,FN
Felt Bicycles,FN
Fyxation,FN
WPI Engineers,FN
Crestline Hotels & Resorts,FN
Franklin Pierce Ravens,FN
Descente,FN
Yellow Cab Pizza,FN
United Co-operatives,FN
Alterkeys,FN
Travelport,FN
Coast Guard Bears,FN
Visit California,FN
UAE Handball Super Cup,FN
TWU Titans,FN
Sunway Group,FN
Wotif.com,FN
Webb Ellis (sportswear),FN
Davidson Wildcats,FN
Fabletics,FN
Sportfive,FN
GetGo,FN
"Sports Media, Inc.",FN
Disneyland Resort,FN
FINA Youth Water Polo World Championships,FN
Haydenshapes Surfboards,FN
MyguideTravel,FN
FiftyFifty Brewing Company,FN
Minnesota State–Moorhead Dragons,FN
Latvijas Universitāte men's basketball,FN
West African Airways Corporation,FN
