names,type
Mohave and Milltown Railway,FP
"Glasgow, Bothwell, Hamilton and Coatbridge Railway",FP
Ferreyros,FP
Civil Engineering and Development Department,FP
Habitat for Humanity Toronto,FP
Progressive Miners of America,FP
Royal School of Mines,FP
"Construction, Forestry, Mining and Energy Union",FP
RB Kolubara,FP
Koppers,FP
Greka Energy,FN
JCB (company),FN
Kenmare Resources,FN
Boguchany Aluminium Smelter,FN
Boart Longyear,FN
Ural Mining and Metallurgical Company,FN
Carson and Colorado Railway,FN
Mineworkers Union of Namibia,FN
Japan Patent Office,FN
Allis-Chalmers,FN
AkzoNobel,FN
Oklahoma Department of Mines,FN
Tega Industries Ltd.,FN
EBX Group,FN
ARM Cement Limited,FN
Trinidad & Tobago National Petroleum Marketing Company Limited,FN
"Government College of Engineering, Keonjhar",FN
Derbyshire Miners' Association,FN
FICO,FN
XS Platinum,FN
Teichert (company),FN
Sandstorm Gold,FN
Jordan Phosphate Mines,FN
Western Federation of Miners,FN
MeeMix,FN
SolveIT Software,FN
El Brocal,FN
Cameco,FN
Kerr-McGee,FN
Camborne School of Mines,FN
Rea Magnet Wire,FN
Minera Valparaíso,FN
Mongolian Mining Corporation,FN
IP Australia,FN
