names,type
Agroindustrial Casa Grande,FP
Wilocity,FP
Axfood,FP
Wescam,FP
Legislative Council of New Brunswick,FP
Pathmark,FP
Ruth's Chris Steak House,FP
Dobrá čajovna,FP
Rijksmuseum Research Library,FP
"Department of Agriculture, Food and the Marine",FP
Uniregistry,FP
Juan Valdez Café,FP
Shilo Inns,FP
Go Hotels,FP
Carprice,FP
Calidad Pascual,FP
Slug and Lettuce,FP
Mellow Mushroom,FP
Móra Ferenc Secondary School,FP
Sexton Foods,FP
Buenos Aires Province Chamber of Deputies,FP
Kellari Hospitality Group,FP
Kenmare Resources,FP
PCC Natural Markets,FP
La Dolfina Polo Team,FP
Royiska Sotnia,FP
Cracker Barrel,FP
Shoney's,FP
Issta,FP
Wahoo's Fish Taco,FP
Red Hot & Blue (restaurant),FP
Jaffna Public Library,FP
Bowlin Travel Centers,FP
Shoutoku,FP
C Lidgate,FP
Decentralized Administration of the Aegean,FP
Heine Brothers',FP
Sonny's BBQ,FP
Itsu,FP
Nova Southeastern Sharks,FP
Earls (restaurant chain),FP
Toby Keith's I Love This Bar & Grill,FP
South Australian Regional Leagues,FP
Grupo Empresarial Ángeles,FP
Nickerson Farms,FP
Duke Video,FP
Jim's Restaurants,FP
Susse Chalet,FP
The Fryer's Delight,FP
Tumbleweed Tex Mex Grill & Margarita Bar,FP
Beefeater (restaurant),FP
Carino's Italian,FP
Whole Foods Co-op,FP
Sweetgreen,FP
Wag's,FP
Kooperativa Förbundet,FP
Black Bear Diner,FP
Sharpie (marker),FP
AT&T Intellectual Property I,FP
Barista Lavazza,FP
Charlie Brown's Fresh Grill,FP
UFCW Local 1776,FP
Mike's Place,FP
Dreamland Bar-B-Que,FP
Droste,FP
Trinidad and Tobago Creative Industries Company,FP
Cafè Neo,FP
Sticks'n'Sushi,FP
Gekkeikan,FP
El Gaucho,FP
Wedge Community Co-op,FP
Lovedesh,FP
Nor-Ferjer,FP
Saudi Readymix Concrete Company,FP
Mumtaz Group,FP
Grounds for Coffee,FP
Letz Sushi,FP
Cumberland Community Improvement District,FP
La Madeleine (restaurant chain),FP
Official All Star Café,FP
Coffeeheaven,FP
Cantina Laredo,FP
Golden Nugget Pancake House,FP
Insomnia Coffee Company,FP
Little Pine (restaurant),FP
Morton's The Steakhouse,FP
"Trade Union International of Agroalimentary, Food, Commerce, Textile & Allied Industries",FP
S&W Cafeteria,FP
The Brain Music,FP
Countdown (supermarket),FP
Hoss's Steak and Sea House,FP
Nuremberg S-Bahn,FP
Darden Restaurants,FP
Figaro Coffee,FP
Sanyuan Group,FP
Société des alcools du Québec,FP
Bottlenotes,FP
Lebedyansky (company),FP
Gateway Group,FP
Lock & Lock,FP
Canberra Milk,FP
Mac Fisheries,FP
Kings Family Restaurants,FP
IFIS Publishing,FP
Meliá Hotels International,FP
Crepes & Waffles,FP
Congo Grille,FP
The California Wine Club,FP
The UK Holiday Group,FP
La Porchetta,FP
Alliance Boots,FP
Primark,FP
Lotte Liquor,FP
Mikel Coffee Company,FP
United Nations Humanitarian Air Service,FP
Redwood Empire Food Bank,FP
Luby's,FP
Cooperativa Agrícola y Lechera de La Unión Limitada,FP
Cbeyond,FP
Kotipizza,FP
Punch Taverns,FP
Al-Muqaddamiyah Madrasa,FP
Philippine Postal Corporation,FP
Alfalfa House,FP
"Bakery, Confectionery, Tobacco Workers and Grain Millers' International Union",FP
Mudgie's Deli,FP
Yocco's Hot Dogs,FP
Food Basics USA,FP
Earth Fare,FP
Basutoland Ink,FP
Cheba Hut,FP
Isaac's Restaurant & Deli,FP
Bobby's Burger Palace,FP
Boloco,FP
Carrols Restaurant Group,FP
Real Mex Restaurants,FP
"Union of Shop, Distributive and Allied Workers",FP
Tierra Mia Coffee,FP
Foodtown,FP
Gondola Group,FP
McCormick & Schmick's,FP
Timber Lodge Steakhouse,FP
Indian Institute of Crop Processing Technology,FP
Gombak United FC,FP
SpeechCycle,FP
ViSalus,FP
OEM International,FP
Ministry of Food Processing Industries,FP
Big Boy Restaurants,FP
Wests (drink),FP
Applebee's,FP
The Cheesecake Factory,FP
Black Bar 'n' Burger,FP
Marinello Schools of Beauty,FP
Central Market (Texas),FP
Statskog,FP
Hugendubel,FP
Johann Maria Farina gegenüber dem Jülichs-Platz,FP
RIU Hotels,FP
EatOye,FP
SPoT Coffee,FP
Ziferblat,FP
Italian Sommelier Association,FP
Resurfice Corporation,FP
McGrath's Fish House,FP
Pink Taco,FP
GNC (store),FP
Stir Crazy Thane,FP
Crabby Joe's Tap & Grill,FP
Eng Wah Global,FP
Central Marine Fisheries Research Institute,FP
Wyndham Vacation Resorts Asia Pacific,FP
Buffalo Wings & Rings,FP
Frontline Ltd.,FP
"Retail, Wholesale and Department Store Union",FP
Prairie Farms Dairy,FP
Ingersoll Watch Company,FP
Gruma,FN
Food Network,FN
Clorox,FN
BiRite Foodservice Distributors,FN
Blue Sky Vineyards,FN
Poultry CRC,FN
Beaulieu Vineyard,FN
SATS Ltd,FN
Rem Offshore,FN
Vallée de Vin,FN
Ytteborg Brewery,FN
Sam Mills (company),FN
Alimentos La Giralda,FN
Courvoisier,FN
Morland Brewery,FN
Milio's Sandwiches,FN
Mr. Sandy,FN
Jamuna Group,FN
Bermúdez (rum),FN
Bollinger,FN
Mr. Pizza,FN
DeMet's Candy Company,FN
GEA Group,FN
Royal Unibrew,FN
Jimmy John's,FN
Jain Irrigation Systems,FN
Burger Fuel,FN
Cooking Channel,FN
Arcus (company),FN
Country Style Cooking,FN
Meadow Fresh,FN
Mr Bean (company),FN
Roly Poly,FN
Mighty Taco,FN
Jones Dairy Farm,FN
Peter Piper Pizza,FN
Luzhou Laojiao,FN
FibreTech Innovations,FN
Xen Coffee,FN
Adler Seeds,FN
Vignoble Carone,FN
St. James Winery,FN
Zatarain's,FN
Just Falafel,FN
Scarecrow (wine),FN
Chope,FN
Ingredion,FN
Chaddsford Winery,FN
Gategroup,FN
Speciality Restaurants Limited,FN
Nongfu Spring,FN
Carlisle Companies,FN
Franke (company),FN
Sahlen's,FN
Bully Hill Vineyards,FN
Destilería Serrallés,FN
Maldives Industrial Fisheries Company,FN
Associated Grocers,FN
Rainbow Grocery Cooperative,FN
Blackjack Pizza,FN
Del Monte Kenya,FN
Thai Express,FN
Ritz Crackers,FN
OpenTable,FN
Sammy's Pizza,FN
Thatchers Cider,FN
Grupo León Jimenes,FN
Café de Coral (restaurant),FN
James O. Welch Co.,FN
Fonseca Guimaraens,FN
Jimmy Watson Memorial Trophy,FN
Pams (company),FN
Olam International,FN
Burger Street,FN
Manchu Wok,FN
Fish Information and Services,FN
Premium Brands Holdings Corporation,FN
Licor 43,FN
Siboney (rum),FN
Palermo's Pizza,FN
Freddy's Frozen Custard & Steakburgers,FN
Stags' Leap Winery,FN
Bosman Family Vineyards,FN
Champagne Besserat de Bellefon,FN
Newfoundland and Labrador Liquor Corporation,FN
Circus Drive-In,FN
The Great American Bagel Bakery,FN
Oak Knoll Winery,FN
"Bodegas Pomar, C.A.",FN
C. Person's Sons,FN
Southern Wine & Spirits,FN
Dairy Industry Association of Australia,FN
WEST (brewery),FN
J.CO Donuts,FN
85C Bakery Cafe,FN
Pacific Seafood,FN
San Antonio Winery,FN
Shipley Do-Nuts,FN
Australian Fast Foods Pty Limited,FN
Blaze Pizza,FN
Hot Lips Pizza,FN
Red Barn (restaurant),FN
Saladworks,FN
Milo's Hamburgers,FN
Downslope Distilling,FN
Sai Prasad Corporation Ltd,FN
Fressnapf,FN
Lick's Homeburgers,FN
Greenwich Pizza,FN
Worthington Brewery,FN
L'Aventure,FN
Pet Food Express,FN
Veetee Rice,FN
LSG Sky Chefs,FN
Moby Dick (restaurant),FN
Mai Dubai,FN
Délifrance,FN
Blasted Church Vineyards,FN
Bumitama Agri,FN
Ashraf Group of Industries,FN
Shepherd Neame Brewery,FN
Suntory,FN
Clifton's Cafeteria,FN
Cantillon Brewery,FN
Mamoun's Falafel Restaurant,FN
Bess Eaton,FN
Farm Progress,FN
Zagrebačka pivovara,FN
Weingut von Othegraven,FN
Muteppou,FN
Fred Koch Brewery,FN
Arcos Dorados Holdings,FN
Pointe of View Winery,FN
Sula Vineyards,FN
Port City Java,FN
The Great Canadian Bagel,FN
Old Bay Seasoning,FN
Schloss Vollrads,FN
Circle K,FN
Boyer Brothers,FN
Twelve Cupcakes,FN
Hunt Edmunds,FN
Greco Pizza Restaurant,FN
Codorníu Winery,FN
Western Sugar Cooperative,FN
Zankou Chicken,FN
Badel 1862,FN
Domino's Pizza Group,FN
Gustobene,FN
Chicken in the Rough,FN
Brakspear Brewery,FN
Oman Fisheries,FN
Cline Cellars,FN
The Training Table,FN
Frost Gelato,FN
Bimbo Bakeries USA,FN
Wild Willy's,FN
Pastamania,FN
Pioneer Chicken,FN
Cook Trading,FN
Breaux Vineyards,FN
Pampered Chef,FN
Willamette Valley Vineyards,FN
America's Incredible Pizza Company,FN
Wimpy (restaurant),FN
Kettle Restaurants,FN
Burhop's Seafood,FN
Brick Brewing Company,FN
Borden Milk Products,FN
Edo Japan (restaurant),FN
Premama,FN
Dennis' Horseradish,FN
Schramsberg Vineyards,FN
Harvey's,FN
Sheetz,FN
Cantine Lungarotti Winery,FN
Yellow Cab Pizza,FN
Domaine Chandon California,FN
Yesterdog,FN
Brasserie Saint James,FN
Flag Hill Winery,FN
Melcom,FN
Heart Attack Grill,FN
Duncan Taylor (company),FN
Bryncelyn Brewery,FN
Zweigle's,FN
Bear River Winery,FN
GetGo,FN
Martha Stewart Living Omnimedia,FN
Tip Top Bakeries,FN
Bincho,FN
Famous Brands,FN
Moe's Italian Sandwiches,FN
Bakers Oven,FN
Bakkafrost,FN
C&C Group,FN
Edible Arrangements,FN
