names,type
Textron,FP
GolAZ,FP
Mieschke Hofmann und Partner,FP
Electro-Motive Diesel,FP
Construcciones y Auxiliar de Ferrocarriles,FP
Tauck,FP
Plane Saver Credit Union,FP
Information Systems Associates FZE,FP
104th Logistic Support Brigade (United Kingdom),FP
JCB (company),FP
Hennessey Performance Engineering,FP
British Airline Pilots' Association,FP
Postal codes in Afghanistan,FP
List of decommissioned ships of the Colombian Navy,FP
Automobile Association of South Africa,FP
List of Imperial Russian Navy destroyers,FP
Homa Hotel Group,FP
Amlogic,FP
South American Road Mile Championships,FP
Metrowagonmash,FP
Allied Pilots Association,FP
Travelyaari,FP
NSW Lotteries,FP
"Chromalox, Inc.",FP
EasyGroup,FP
BaneTele,FP
Silmet,FP
Manila Water,FP
Almaz-Antey,FP
Flexcar,FP
FareBuzz,FP
Finnish Transport Agency,FP
Calyon Financial,FP
Kuznetsov Design Bureau,FP
SWU Maritime Regiment,FP
Bharat Heavy Electricals,FP
Ateliers de Constructions Mécaniques de Vevey,FP
Ministry of Transportation of Ontario,FP
Pillow Homes,FP
Swiss Air Traffic Control Technical Association,FP
E2open,FP
Fort Bend County Toll Road Authority,FP
Stonegate Pub Company,FP
Nova Scotia Light and Power,FP
"Sharp, Stewart and Company",FP
Thomson Holidays,FP
General Authority of Civil Aviation,FP
Sheffield Amalgamated Union of File Trades,FP
Bradken,FP
ManhattanGMAT,FP
Leeward Islands Airline Pilots Association,FP
Airport Regions Conference,FP
Victorian Railways,FP
Transport Department,FP
Peruvian Naval Aviation,FP
Vulcan Foundry,FP
Charles Burrell & Sons,FP
The Oriental Land Company,FP
Open Mobile,FP
EasyCruise,FP
Zuma Press,FP
Bin Quraya,FP
"Paul K. Guillow, Inc.",FP
Jasuben Pizza,FP
Veritas AG,FP
North American Bancard,FP
"Rothwell, Hick and Rothwell",FP
"Ministry of Land, Infrastructure, Transport and Tourism",FP
Ministry of Transport (New Zealand),FP
Worthington Brewery,FP
Autostrade Lombarde,FP
Rajiv Gandhi National Aviation University,FP
Aeros,FP
Director of Passenger Rail Franchising,FP
General Company for Ports of Iraq,FP
Türk Telekom,FP
Interurban Press,FP
Turquoise Hill Resources,FP
Bering Sea Squadron,FP
Bahamas Taxi Cab Union,FP
PPU (union),FP
Iveco Bus,FP
Driver and Vehicle Licensing Agency,FP
Royal Caribbean Cruises Ltd.,FP
International Federation of Air Traffic Controllers' Associations,FP
The Korea Transport Institute,FP
VOA1,FP
London's Air Ambulance,FP
Westfalen AG,FP
General Motors South Africa,FP
Driver and Vehicle Licensing Authority,FP
Christian Motorcyclists Association,FP
Société Franco-Belge,FP
Airline Superintendents Association,FP
Land Rover,FP
Puerto Rico Manufacturers Association,FP
Secretariat of Communications and Transportation (Mexico),FP
National Shipping Board,FP
Schalker Eisenhütte Maschinenfabrik,FP
CroisiEurope,FP
Ewald Automotive Group,FP
Kura (company),FP
Moroccan Airports Authority,FP
Oil Creek Library District,FP
Britten-Norman,FP
Oceania Cruises,FP
Hong Kong Ferry,FP
VX-6,FP
Princess Cruises,FP
Marine Corps Logistics Command,FP
Ministry of Railways (Soviet Union),FP
Recaro,FP
Genpact,FP
General Company for Maritime Transport (Iraq),FP
Chittaranjan Locomotive Works,FP
Woolstenhulmes & Rye,FP
Virgin Voyages,FP
MFC Mykolaiv,FP
Affiliated Managers Group,FP
No. 114 Mobile Control and Reporting Unit RAAF,FP
Urmson & Thompson,FP
Asbury Automotive Group,FP
Commission of Railway Safety,FP
Canadian Arrow,FP
Wabush Lake Railway,FN
Holm & Molzen,FN
Dagrofa,FN
"Electric Transit, Inc.",FN
Southdown PSV,FN
Electroputere VFU,FN
Travel Channel,FN
Hornby Railways,FN
Go Bus Transport,FN
Norsk Spisevognselskap,FN
Cruise Whitsundays,FN
Isle of Man Post Office,FN
Philly Shipyard,FN
China Shipping Group,FN
Marotta,FN
Scott of Kinghorn,FN
Odessos Shiprepair Yard,FN
Korea Airports Corporation,FN
Eurotunnel,FN
Cascades Railroad,FN
Taiwan International Ports Corporation,FN
China Merchants Group,FN
Kvaerner Govan,FN
Nishi-Nippon Railroad,FN
Alaris,FN
Chattanooga Area Regional Transportation Authority,FN
DoorDash,FN
Marine Atlantic,FN
Toronto Transit Commission,FN
LibanPost,FN
DCNS (company),FN
Emu Bay Railway,FN
Pakistan Post,FN
Bethlehem Shipbuilding Corporation,FN
Harsco,FN
American River Transportation Company,FN
Tschudi Group,FN
LSO (company),FN
Post Danmark,FN
Old Dominion Freight Line,FN
Civil Air Transport,FN
China Shipbuilding Industry Corporation,FN
Sandy Ridge and Clear Lake Railway,FN
HCT Group,FN
Maurel & Prom,FN
Swiss Post,FN
VOLFONE,FN
Schweizer Aircraft,FN
Euronav,FN
Austal USA,FN
CIT Roussillon,FN
"Glasgow, Bothwell, Hamilton and Coatbridge Railway",FN
MasFlight,FN
New Zealand Shipping Company,FN
Jiangnan Shipyard,FN
Duple Coachbuilders,FN
Ultra Electronics,FN
Dan-Air Engineering,FN
Climatecars,FN
Cubic Transportation Systems,FN
NJ Transit,FN
Northrop Grumman,FN
Lufttransport,FN
ElDorado National,FN
North Sea Boats,FN
El Sol (bus line),FN
Shipping Corporation of New Zealand,FN
Air New Zealand Link,FN
Gas Connect Austria,FN
Chartered Institute of Logistics and Transport in the UK,FN
Freightos,FN
MyTravel Group,FN
Reiherstieg Schiffswerfte & Maschinenfabrik,FN
Sociedad Hispano-Marroquí de Transportes,FN
Veritair,FN
Wheel-Trans,FN
Ircon International,FN
Gogo Charters,FN
Allaire Iron Works,FN
William Scott Shipbuilders,FN
Caledonian MacBrayne,FN
McGuire and Hester,FN
Trailer Bridge,FN
Evinrude Outboard Motors,FN
Andrée & Rosenqvist,FN
St John Freight Systems Ltd,FN
Sixt,FN
Tyco Toys,FN
Metropolitan Transportation Authority,FN
New Zealand Post,FN
Evans Deakin and Company,FN
J. D. Irving,FN
Cammell Laird,FN
"Mitsubishi Fuso Truck of America, Inc.",FN
Transtech (Finnish company),FN
Harrods Aviation,FN
Payless Car Rental,FN
Su Marine Yachts,FN
Varsity Express,FN
Volkswagen India,FN
Forgacs Group,FN
Boeing Commercial Airplanes,FN
Golar LNG,FN
MJLF & Associates,FN
Gio. Ansaldo & C.,FN
SATSair,FN
Portvision,FN
Chinkara Motors,FN
PZL Mielec,FN
Springville and Sardinia Railroad,FN
6th Motor Transport Battalion,FN
Sikorsky Aircraft,FN
Palm Line,FN
ICT Group (Russia),FN
Airfix,FN
ARINC,FN
Pakistan Navy School of Logistics and Management,FN
Grupo México,FN
Carlisle Companies,FN
Caledonian Steam Packet Company,FN
OnTrac,FN
XPO Logistics,FN
Girardin Minibus,FN
An Post,FN
Bermuda Public Transportation Board,FN
Transportation in Georgia (U.S. state),FN
Mapna Locomotive Engineering and Manufacturing Company,FN
Refund.me,FN
Kefalonian Lines,FN
BAE Systems Marine,FN
Uber (company),FN
John Keells Holdings,FN
Scandlines,FN
Indo-China Steam Navigation Company Ltd.,FN
Delek,FN
Nevis Express,FN
Department of Railways New South Wales,FN
Thales Australia,FN
Nor-Ferjer,FN
Vietnam Airlines,FN
Munich S-Bahn,FN
AerSale,FN
Cumberland Community Improvement District,FN
Kalex,FN
Nakilat,FN
Sovcomflot,FN
Tranz Rail,FN
Smolensk Aviation Plant,FN
Poste italiane,FN
Aviareps,FN
Yucaipa Companies,FN
Railway Recruitment Control Board,FN
Sandahlsbolagen,FN
Ha'argaz,FN
Australian National Railways Commission,FN
Greek Steamship Company,FN
J. Samuel White,FN
Istanbul Metro,FN
"Proterra, Inc.",FN
Pakistan Army Corps of Electrical and Mechanical Engineering,FN
Biketown,FN
Manila North Tollways Corporation,FN
Southern Air Transport,FN
Pioneer Valley Railroad,FN
Pakistan Merchant Navy,FN
Future Group,FN
GrainCorp,FN
Paravaran Asseman (Paaviation),FN
Vickers,FN
Ecourier,FN
Nuremberg S-Bahn,FN
Amazon Prime Air,FN
Victoria Machinery Depot,FN
Alyeska Pipeline Service Company,FN
P&O Ferries,FN
RailAmerica,FN
YourDrive,FN
Avro,FN
Commonwealth Railways,FN
Acro Sport,FN
China Motor Bus,FN
Faller,FN
Pinsly Railroad Company,FN
"Maudslay, Sons and Field",FN
Celtic Link Ferries,FN
SYSTRA,FN
Borgestad (company),FN
HopSkipDrive,FN
John Penn and Sons,FN
Al Ghurair Investment,FN
Frateschi,FN
Invepar,FN
Mormedi,FN
"Aeroexpresos Ejecutivos, C.A.",FN
United Streetcar,FN
Thomas Cook AG,FN
Australia Post,FN
UBM Aviation,FN
EBX Group,FN
Bridas Corporation,FN
NPO Saturn,FN
Trago Mills,FN
Eitzen Chemical,FN
No. 5 Group RAAF,FN
Wadan Yards,FN
Cravens,FN
Bay Shipbuilding Company,FN
Colonial Airlines,FN
Celadon Group,FN
Emepa Group,FN
Canadian Affair,FN
GE Technology Infrastructure,FN
South African Red Cross Air Mercy Service,FN
Jordan Post Company,FN
New Zealand Midland Railway Company,FN
Carma,FN
Qantas Freight,FN
Bee Line Railroad,FN
Cintra,FN
Conair Group,FN
Morgan Iron Works,FN
Broome County Transit,FN
CTT (Macau),FN
Kenya Medical Supplies Agency,FN
Vopak,FN
Kaiserliche Werft Danzig,FN
United Nations Humanitarian Air Service,FN
Oderwerke,FN
Grupo RBS,FN
Maldives Ports Limited,FN
Alabama Southern Railroad,FN
Hyundai Heavy Industries,FN
"Buffalo, Pittsburgh and Western Railroad",FN
Saia,FN
Nevskaya Oil Pipeline Company LLC,FN
Project Eden (company),FN
Canadian Aerodrome Company,FN
AppyParking,FN
Damen Group,FN
Philippine Postal Corporation,FN
Sealion Shipping,FN
Metrobus (South East England),FN
Moriwaki,FN
General Electric,FN
"Workman, Clark and Company",FN
Tourism Holdings Limited,FN
Defoe Shipbuilding Company,FN
Grand Crimean Central Railway,FN
Contrac Cobus,FN
SADRA,FN
KiwiRail,FN
Yellow Dog Records,FN
Southeastern Freight Lines,FN
3d Transportation Support Battalion,FN
SEPTA City Transit Division surface routes,FN
Thai Aviation Industries,FN
Rome Metro,FN
Levant Company,FN
Keihin Corporation,FN
Oberweis Dairy,FN
Summon (company),FN
Gogo Inflight Internet,FN
Transpetro,FN
Transocean Singapore,FN
Transportation in New York,FN
PCC Group,FN
MRT (Bangkok),FN
Kitsap County Transportation Company,FN
Foss Maritime,FN
Multipart Solutions,FN
OEM International,FN
PIA F.C.,FN
Tohatsu,FN
Carey Short Line,FN
NWS Holdings,FN
Remarul 16 Februarie,FN
Ecuatoriana de Aviación,FN
India Posts,FN
General Dynamics,FN
City Car Club,FN
AEG,FN
Keyway Air Transport,FN
Ganz Works,FN
Iochpe-Maxion,FN
United Africa Company,FN
Airco,FN
Burntisland Shipbuilding Company,FN
Con-way,FN
Ghods Industry,FN
Consol Energy,FN
Central Japan Railway Company,FN
Zagato,FN
Nova Bus,FN
British Polar Engines,FN
Kowloon Motor Bus,FN
Getaround,FN
Phoenix Pharmahandel,FN
Perley A. Thomas Car Works,FN
Korean Air,FN
Gdańsk Shipyard,FN
Keikyu,FN
Ontario Co-operative Association,FN
Citibus (Lubbock),FN
Daseke Inc.,FN
Mercury Marine,FN
Gas Light and Coke Company,FN
Abellio (transport company),FN
Lawrence & Foulks,FN
Belships,FN
Ferretti Group,FN
Air Uganda,FN
Weser Flugzeugbau,FN
SIA Engineering Company,FN
YRC Worldwide,FN
NuTonomy,FN
Hybrid Air Vehicles,FN
COSCO,FN
Nissan Outboard Motors,FN
United States Postal Service,FN
AERO Specialties,FN
Captain Cook Cruises Western Australia,FN
Domino's Pizza,FN
Förde Reederei Seetouristik,FN
TUI Travel,FN
Wilderness Air,FN
TAL International Group,FN
Shofur,FN
Unison Industries,FN
Pakistan International Airlines cricket team,FN
Erickson Inc.,FN
Timocom,FN
Bowring Brothers,FN
Famous Brands,FN
Frontline Ltd.,FN
Chiang Mai Zoo,FN
Nederlandsche Dok en Scheepsbouw Maatschappij,FN
Abertis,FN
Vigor Shipyards,FN
