names,type
Zamperla,FP
Juki,FP
Kurzweil Music Systems,FP
Obrey (watches),FP
Tannoy,FP
Cash's,FP
Mack Group,FP
Arc International,FP
Odessos Shiprepair Yard,FP
Aircel,FP
Sudden Impact! Entertainment Company,FP
Orchard Supply Hardware,FP
Courvoisier,FP
KannaLife,FP
Prouds,FP
Alfred Angelo,FP
Bidvest Group,FP
Estap,FP
Waltham International,FP
Killerspin,FP
Gigabyte Technology,FP
Mio Technology,FP
Safestyle UK,FP
Slovenské energetické strojárne,FP
Christopher Ward (watchmaker),FP
Marucci Sports,FP
Rum Aladdin,FP
"Harry Winston, Inc.",FP
Donruss,FP
Emma Bridgewater,FP
L-ACOUSTICS,FP
Neo-Neon Holdings,FP
Veritone Minimum Phase Speakers,FP
SIMPO,FP
Polar Electro,FP
Halfords,FP
Thomas Organ Company,FP
MiaDonna,FP
OPI Products,FP
MCM Worldwide,FP
Huppenkothen Baumaschinen,FP
Mitsubishi Research Institute DCS,FP
"Clothing, Laundry and Allied Workers Union of Aotearoa",FP
American Signal Corporation,FP
Breuners Home Furnishings,FP
Reguladora,FP
Patek Philippe & Co.,FP
UZO,FP
Shakti pumps,FP
H2O Wireless,FP
Fisher Electronics,FP
Shiels Jewellers,FP
Global Video,FP
Boots UK,FP
Musical Fidelity,FP
Vietnam Posts and Telecommunications Group,FP
Janssen-Fritsen,FP
E&F Miler Industries,FP
Bulova,FP
MIPRO,FP
Cellcom (United States),FP
John Hetherington & Sons,FP
Winpak,FP
Spag's,FP
Thomas Mercer Chronometers,FP
Royal Typewriter Company,FP
HomeForm Group,FP
Dbx (company),FP
Hopkins Rides,FP
ILVA,FP
James O. Welch Co.,FP
McMahan's Furniture,FP
Donghia,FP
Aviom,FP
G. Fox & Co.,FP
Banglalink,FP
BikeBandit,FP
Gema Switzerland,FP
Signet Jewelers,FP
Hygena,FP
Gilbarco Veeder-Root,FP
Drake's (haberdashers),FP
D'damas,FP
Leclanché,FP
Anonimo (watch),FP
Wahoo! (company),FP
Voice Mobile,FP
Gerald Online,FP
Once Upon a Treehouse,FP
Zenith (watchmaker),FP
United Furniture Warehouse,FP
DE Photo,FP
Kustom Amplification,FP
Skis.com,FP
Quinze & Milan,FP
Matchless Amplifiers,FP
Toy2R,FP
Bradford Exchange,FP
Jumbo S.A.,FP
M.T. Broyhill & Sons Corporation,FP
Cattuong Corp,FP
F. Hinds,FP
F. P. Journe,FP
Funtime (manufacturer),FP
Wenger,FP
Coggles,FP
Audio-Technica,FP
Auto Parts Warehouse,FP
Beaverbrooks,FP
Obi Worldphone,FP
Rörstrand,FP
Smith of Derby Group,FP
Great Little Trading Co,FP
Bluebella,FP
Sellotape,FP
TRYMAX,FP
Easyday,FP
Sri Lanka Telecom,FP
Porter Lyons,FP
Acer Inc.,FP
Element Mobile,FP
International Watch Company,FP
Ultrasone,FP
KB Toys,FP
Take Note,FP
Bormioli Rocco,FP
Eisaku Noro Company,FP
Thuraya,FP
The Black Tux,FP
Takaya,FP
The Label Life,FP
Acorn Computers (2006),FP
Parfums Lubin,FP
Thorens,FP
GeeksPhone,FP
Aarong,FP
Telit,FP
Armstrong Tools,FP
Joanne's Bed and Back,FP
"Toys ""R"" Us",FP
Ohio Art Company,FP
Toymaster,FP
Corona (soft drink),FP
Sipgate,FP
Breguet (brand),FP
United States Playing Card Company,FP
Microsoft Mobile,FP
Koho (company),FP
Melvita,FP
KiwiRail,FP
Kejian Group,FP
Landmark Bookstores,FP
Spear & Jackson,FP
Scheels All Sports,FP
Roche Bobois,FP
Badel 1862,FP
LUTA Sportswear,FP
Safedom,FP
Era Watch Company,FP
Spansion,FP
Audemars Piguet,FP
Hiwave Technologies,FP
Cambridge Satchel Company,FP
Sports Direct,FP
Young & Sick,FP
R. John Wright Dolls,FP
Nick Scali Furniture,FP
AM&A's,FP
PC Jeweller,FP
Chiaphua Components Group,FP
Universal Tube & Rollform Equipment,FP
Yoigo,FP
Borden Milk Products,FP
Fiskars,FP
China Hualu Group,FP
"Swayne, Robinson and Company",FP
Revol Wireless,FP
Küschall,FP
Multiyork,FP
DBTel,FP
Shinola,FP
Walmart de México y Centroamérica,FP
Wittenstein,FP
Dream Authentics,FP
CarMax,FP
Spyderco,FP
Otto GmbH,FP
Visconti (company),FP
Gander Mountain,FP
Polimoda,FP
All-Clad,FP
Zippo,FP
Cinram,FP
Molten Corporation,FP
Pioneer Kitchenware,FP
Munchkin Inc.,FP
Restoration Hardware,FP
Besson (company),FP
Accurist,FP
Shubb,FP
MTC Namibia,FP
Saygus,FP
Beazer Homes USA,FN
Clorox,FN
Pajar,FN
CPC (A Premier Farnell Company),FN
McVitie's,FN
Sibley's,FN
Karen Millen,FN
Becker guitars,FN
Gorenje,FN
Marico,FN
Pacific Fur Company,FN
Tectoy,FN
Filatex India,FN
Guild Guitar Company,FN
Tiger Corporation,FN
JXD,FN
Apulum (company),FN
Weissenborn,FN
Lukfook Group,FN
Sony,FN
Howard Miller Clock Company,FN
Estey Organ,FN
Dixon Drums,FN
Mammut Sports Group,FN
Swaine Adeney Brigg,FN
Hohner,FN
Grand Sport Group,FN
Wet Seal,FN
Borqs,FN
Walon Sport,FN
Choppies,FN
Cospa,FN
Deering Banjo Company,FN
Happy Plugs,FN
Fast Retailing,FN
Canada Goose (clothing),FN
System76,FN
The People's Operator,FN
One Way Sport,FN
Motorola Mobility,FN
Hengerer's,FN
YG Entertainment,FN
OnlyXO,FN
Ewenny Pottery,FN
Payless ShoeSource,FN
Jamuna Group,FN
Sealy Corporation,FN
RW3 Technologies,FN
Shaklee,FN
Paraffection,FN
Sunstar Group,FN
Jackson Guitars,FN
Kay Musical Instrument Company,FN
The Fruit Company,FN
Guylian,FN
Revolver Co-operative,FN
Shipley & Halmos,FN
Slingerland Drum Company,FN
Defy Appliances,FN
Iriver Inc,FN
JVC,FN
PING Collection,FN
Concord Group,FN
Mars Canada,FN
Footstar,FN
Fazioli,FN
Nine West Holdings,FN
The Wiz (store),FN
Target Optical,FN
Previse,FN
Dean Markley USA,FN
Acoustic Research,FN
Tomy,FN
The NOCO Company,FN
Spira Footwear Inc.,FN
CREO,FN
Vinaphone,FN
TrackR,FN
Amlogic,FN
Nordstrom,FN
Tai Ping Carpets,FN
Sleishman,FN
Washburn Guitars,FN
Loi Hein Company,FN
Carr Amplifiers,FN
Unité,FN
Brady Drum Company,FN
Orient Electric,FN
YU Televentures,FN
Barefoot (retailer),FN
Now PAYG,FN
Jabra (headset),FN
Baldinini,FN
PEL (Pakistan),FN
Jantzen,FN
Teespring,FN
BBK Electronics,FN
Purdy's Chocolates,FN
British Home Stores,FN
GlaxoSmithKline,FN
Karbonn Mobiles,FN
Rocky Mountain Chocolate Factory,FN
Tony Lama Boots,FN
Dawlance,FN
Imitation of Christ (designs),FN
Lotte Confectionery,FN
Huonekalu- ja Rakennustyötehdas,FN
Alpine Electronics,FN
Syntax-Brillian Corporation,FN
Abbott family,FN
Kimberly-Clark,FN
Tyco Toys,FN
Styloko,FN
Gaggia,FN
Select Model Management,FN
Unilever Australasia,FN
Rickenbacker,FN
Bontempi,FN
Devergo,FN
Cherie Amie,FN
J. S. Fry & Sons,FN
Roshen,FN
Kawai Musical Instruments,FN
Ayotte Drums,FN
Marshall Amplification,FN
Jacob Fruitfield Food Group,FN
Cubavera,FN
Czapek & Cie,FN
Electrolux,FN
Howdens Joinery,FN
Confitex,FN
McCowan's,FN
Burt's Bees,FN
Alchemy Goods,FN
Vodafone New Zealand,FN
Ingredion,FN
Telegames,FN
Orion Electronics,FN
Optoma Corporation,FN
Merrow Sewing Machine Company,FN
Pep&Co,FN
First Act,FN
Joma,FN
Burton (retailer),FN
Creative Technology Limited,FN
Merck Consumer Health,FN
National String Instrument Corporation,FN
CompUSA,FN
IFit,FN
RJR Nabisco,FN
Valrhona,FN
Jello Shoecompany,FN
Tesco International operations,FN
T.J. Maxx,FN
Elonex,FN
Danish Audiophile Loudspeaker Industries,FN
ESys Technologies,FN
NUU mobile,FN
Bossa (company),FN
APF Electronics Inc.,FN
Joyva,FN
Kiesel Guitars,FN
Mobitel (Slovenia),FN
Shea Homes,FN
Varney Scale Models,FN
Ernie Ball,FN
Hudson's Bay Company,FN
Office Holdings,FN
Knockaround,FN
Sookbox,FN
James Avery Craftsman,FN
Hain Celestial Group,FN
Supreme Tex Mart,FN
Nordost Corporation,FN
"Audio Advice, Inc.",FN
R. J. Reynolds Vapor Company,FN
ESP Guitars,FN
Droste,FN
Just Born,FN
Cadbury,FN
Lindt & Sprüngli,FN
InvenSense,FN
47 Street,FN
IKEA,FN
Wing On,FN
Funke Digital TV,FN
Laura Secord Chocolates,FN
Lumene,FN
"Adrianna Papell, LLC",FN
EDUN,FN
Marshalls,FN
Baldwin Piano Company,FN
Skreened,FN
ZUK Mobile,FN
Grupo León Jimenes,FN
Speck Products,FN
Mor Furniture,FN
Warehouse Shoe Sale,FN
Chenab Group,FN
Dokorder,FN
Naterra,FN
Mizuno Corporation,FN
PearC,FN
Lag (company),FN
TigerDirect,FN
James Richardson Corporation,FN
Kanati Clothing Company,FN
House of Fraser,FN
Houchens Industries,FN
Microsoft,FN
Elder-Beerman,FN
KB Home,FN
Incahoot Ltd,FN
Console Inc.,FN
Dolphin Music,FN
Ark Collective,FN
Blacks Photo Corporation,FN
Jaybird (company),FN
Lion Corporation,FN
Famous Footwear,FN
PlaSmart,FN
Cloetta,FN
Stilnest,FN
Sampo Corporation,FN
UniFirst,FN
Mapex Drums,FN
Zorlu Holding,FN
Bohnacker Systeme,FN
Aigo,FN
Bandai,FN
Reverb.com,FN
Mandhana Industries,FN
SIDI,FN
Pitsos,FN
Vanity (clothing),FN
Neptune (company),FN
Carphone Warehouse,FN
Checkpoint Systems,FN
Dreffa,FN
Twice (online retailer),FN
Marc O'Polo,FN
Chocolove,FN
Stroud's Mercantile,FN
Spangler Candy Company,FN
Daewoo,FN
Genesco,FN
True Corporation,FN
Patchi,FN
SMS Audio,FN
Ovation Guitar Company,FN
Whirlpool Corporation,FN
Denby Pottery Company,FN
Technics (brand),FN
Irwin Toy,FN
IK Multimedia,FN
Arnotts (Ireland),FN
Itema,FN
Coleco,FN
GoPro,FN
Cowtown Guitars,FN
Barrington Griffiths Watch Company,FN
Truworths,FN
The Leela Group,FN
Armada (company),FN
Nintendo,FN
Doğtaş,FN
Origami Owl,FN
Tver Garment Factory,FN
DSI Samson Group,FN
Hindustan Unilever,FN
Senken Shimbun,FN
YouView,FN
Al Ghurair Investment,FN
Reitmans,FN
LIME (Cable & Wireless),FN
Mormedi,FN
Aria (guitar company),FN
Siyaram Silk Mills,FN
Panasonic,FN
Couch Guitar Straps,FN
Mederer GmbH,FN
Meinl Percussion,FN
"Finish Line, Inc.",FN
Mophie,FN
Fine Spinners and Doublers,FN
JHS Pedals,FN
"Albion Co., Ltd.",FN
Clerys,FN
Skyworth,FN
McCurdy's,FN
The Source (retailer),FN
Tatung Company,FN
Gurwitch Products,FN
Parkwood Entertainment,FN
Ekornes,FN
Nintendo New York,FN
The Webster,FN
Newegg,FN
DBZ Guitars,FN
Early Learning Centre,FN
Lukfook,FN
Buffalo (footwear),FN
Pepkor,FN
Needler's,FN
Medopad,FN
Primark,FN
Kraš,FN
Forever Living Products,FN
HACEB,FN
"Strunal CZ, a.s.",FN
MTH Electric Trains,FN
Elektron (company),FN
Lord & Taylor,FN
Godiva Chocolatier,FN
Devicescape,FN
"Sugar Sugar, Inc",FN
Specimen Products,FN
Vox (musical equipment),FN
Kitsuné,FN
Focal-JMLab,FN
Tacony Corporation,FN
Club Libby Lu,FN
Bowser Manufacturing,FN
Vizio,FN
Ainol,FN
Element Electronics,FN
Talbots,FN
Chambers stove,FN
Shoe Zone,FN
ArtX,FN
Birkenstock,FN
Millar McCowan,FN
Eureka (company),FN
Unitika,FN
T-Shirt Hell,FN
Kao Corporation,FN
Tween Brands,FN
Darkglass,FN
Cavender's,FN
Embega,FN
Arçelik,FN
Masood Textile Mills,FN
The Fashion (website),FN
Bticino,FN
B. Altman and Company,FN
T-2 (ISP),FN
Santa Cruz Guitar Company,FN
Max Telecom,FN
Palitoy,FN
Parmigiani Fleurier,FN
Accutone,FN
James Lock & Co.,FN
My Nametags,FN
Fujifilm,FN
The Trump Organization,FN
Gola (manufacturer),FN
Nakhtel,FN
Re-Ment,FN
Sonos,FN
Anki (Finnish company),FN
Goody's (store),FN
HerRoom,FN
Parkinson Cowan,FN
RYZ,FN
Moose Toys,FN
Red Wing Shoes,FN
Fritz Hansen,FN
Against All Odds (clothing retailer),FN
Matalan,FN
ES Guitars,FN
Henne Jewelers,FN
Amul,FN
"Aaron's, Inc.",FN
MySupermarket,FN
Lindy Electronics,FN
Alarm.com,FN
Dualit,FN
Cone Mills Corporation,FN
Tesco,FN
Wolverine World Wide,FN
SteelSeries,FN
Ectaco,FN
Ellis Guitars,FN
Onitsuka Tiger,FN
Gildan Activewear,FN
Plasma Records,FN
PUMP Audio,FN
Ideal Homes (US housebuilder),FN
Imasco,FN
Apex Digital,FN
Procter & Gamble,FN
Harmony Company,FN
Blink (production company),FN
YVEL,FN
Hayneedle,FN
Bringrr,FN
Duck Commander,FN
Fano Guitars,FN
Danelectro,FN
Nomos Glashütte,FN
National (brand),FN
Renchi,FN
Jessops,FN
Konti Group,FN
Nanoleaf,FN
SD Association,FN
Auzentech,FN
Storm Model Management,FN
Rent-A-Center,FN
Nextbase UK,FN
Pou Chen Corporation,FN
Griffin Technology,FN
Batschari,FN
Chippewa Boots,FN
Lipinski Sound,FN
Bluebird Toys,FN
Raymour & Flanigan,FN
Craftsvilla,FN
Falco Electronics,FN
Atlas (appliance company),FN
Geeks.com,FN
I-Mobile,FN
Yue Yuen Industrial Holdings,FN
Heatons,FN
Collings Guitars,FN
La Maison Simons,FN
Full Compass Systems,FN
V-Star Creations,FN
Kenwood Corporation,FN
Caran d'Ache (company),FN
BobbleHeads.com,FN
Polk Audio,FN
Chapman Guitars,FN
Nirma,FN
Niederegger,FN
MXR,FN
Gretsch Drums,FN
Galvin Green,FN
D. R. Horton,FN
Hershey Trust Company,FN
Alliance Laundry Systems,FN
Canaan Creative,FN
VIVA Model Management,FN
Multibrands International,FN
Tangerine Confectionery,FN
Advance Telecom,FN
Levin (guitar company),FN
Brook Mays,FN
Tecno Mobile,FN
Harzfeld's,FN
Figleaves,FN
Valley Apparel L.L.C.,FN
Sabian,FN
Superior Glove,FN
Plantronics,FN
Cowon,FN
Crown Lynn,FN
Nasty Gal,FN
Humanic,FN
Sedus,FN
C.R. Alsip Guitars,FN
Toyobo,FN
Etnies,FN
Ingersoll Watch Company,FN
Cerruti 1881,FN
