names,type
Real Ispat and Power,FN
Kardemir,FN
Wheeling-Pittsburgh Steel,FN
SSAB,FN
Crucible Industries,FN
Danieli,FN
Kudremukh Iron Ore Company,FN
APMEX,FN
McLouth Steel,FN
K.A. Rasmussen,FN
Gruppo Riva,FN
Rashtriya Ispat Nigam,FN
Sumitomo Electric Industries,FN
