names,type
JUDGEnergy,FP
Fideres,FP
IMB Banking & Financial Services,FP
Malmaison (hotel chain),FP
Hastings Insurance,FP
MHP Communications,FP
Sukosol Group,FP
Australian Institute of Business,FP
Insurance House,FP
Antex,FP
HomeVestors of America,FN
Camargo Corrêa Desenvolvimento Imobiliário,FN
Wheelock Properties (Hong Kong),FN
42floors,FN
Hamilton King Management,FN
Places Victoria,FN
Major Cineplex,FN
Bidwells,FN
Spot blue international property,FN
Amreit,FN
Innovation Place Research Park,FN
Borgestad (company),FN
DNPric.es,FN
Comcast Spectacor,FN
UrbanIndo,FN
Bayut,FN
Crown Group Holdings,FN
Hafun Fishing Company,FN
KLCC Property Holdings,FN
Urbi,FN
California Bureau of Real Estate Appraisers,FN
King Sturge,FN
PodProperty,FN
Crown Estate,FN
True North Sports & Entertainment,FN
Boston Garden-Arena Corporation,FN
Enoshima Electric Railway,FN
