names,type
ABS-CBN HD,FP
"Gridcentric, Inc.",FP
Brarudi,FP
Kingston Smith,FP
BKV,FP
Isetan Mitsukoshi Holdings,FP
Guidewire Software,FP
InvestUkraine,FP
NSW Business Chamber,FP
IBI Group,FP
All-American Publications,FP
Old Dominion Freight Line,FP
Restaurant Group,FP
Milkor (Pty) Ltd,FP
Dodsal Group,FP
GP Strategies Corporation,FP
Management Consulting Group,FP
Zamtel,FP
Bidwells,FP
Overseas Private Investment Corporation,FP
Leica Biosystems,FP
Daktronics,FP
Deltec Homes,FP
IiNet,FP
HarvEast Holding,FP
Aero California,FP
IPredict,FP
Federal Ministry for Economic Affairs and Energy,FP
Harrods Estates,FP
MASCOM,FP
ICA Gruppen,FP
AccessKenya Group,FP
Uny,FP
Grupo Omnilife,FP
Dusit Thani Group,FP
ZTEsoft,FP
Sigma Designs,FP
Mannatech,FP
IVI Ryo Corporation,FP
JKool,FP
Alico (company),FP
Hafun Fishing Company,FP
Begbies Traynor,FP
Center for Pelvic Health,FP
StarTech.com,FP
Expolanka,FP
Systems Planning and Analysis,FP
IMAM,FP
Indorama Ventures,FP
ASIX s.r.o.,FP
Kordia,FP
Sleepy Jones,FP
Showsec,FP
CITIC Limited,FP
Comhar Dún Chaocháin Teo,FP
Catholic Building Society,FN
Tandem Computers,FN
Salter Group,FN
Seagate Technology,FN
BMI Federal Credit Union,FN
NXP Semiconductors,FN
Saban Capital Group,FN
Cells4Life,FN
Commercial International Bank,FN
Klarna,FN
ImpactFlow,FN
Bangor Savings Bank,FN
Vertex Inc,FN
Pear (company),FN
Permodalan Nasional Berhad,FN
Micro Units Development and Refinance Agency Bank,FN
CanalDigitaal,FN
PlainsCapital Bank,FN
Valley Bank of Kalispell,FN
J.M. Forbes & Co.,FN
CWM FX,FN
Agriculture Insurance Company of India,FN
Fundera,FN
Aptina,FN
Cigna,FN
Tompkins Financial Corporation,FN
Propeller Venture Accelerator,FN
Huntington Bancshares,FN
Affiliated Managers Group,FN
Korean Reinsurance Company,FN
MyLogIQ,FN
Ulster Savings Bank,FN
Monmouthshire Building Society,FN
Crowdrise,FN
TCW Group,FN
BECU,FN
Busey Bank,FN
Girard Bank,FN
CubeSmart,FN
Principality Building Society,FN
Fender Musical Instruments Corporation,FN
USRobotics,FN
Regional Development Fund,FN
AmMetLife,FN
The MicroDreams Foundation,FN
IMB Banking & Financial Services,FN
Berkshire Hathaway GUARD Insurance Companies,FN
United Realty Trust,FN
Nomis Solutions,FN
Linens 'n Things,FN
Hastings Insurance,FN
Blue Cross and Blue Shield of Kansas City,FN
Vibrac Corporation,FN
Santa Clara County Federal Credit Union,FN
SIMPLE Group,FN
Numerica Credit Union,FN
Sumitomo Life,FN
Topps,FN
LendingRobot,FN
MyMajorCompany,FN
State Bank of New South Wales,FN
Deutsche Börse,FN
Ashmore Group,FN
Wetpaint,FN
Publix,FN
Abraham & Straus,FN
United First Financial,FN
Ziggo,FN
GAINSCO,FN
Hillhouse Capital Group,FN
Amalgamated Bank,FN
Insurance House,FN
Metroweb Italia,FN
Abu Dhabi Investment Authority,FN
Export Development Canada,FN
SquareTrade,FN
Belgian Export Credit Agency,FN
GoChange.co,FN
Asia Universal Bank,FN
Great-West Lifeco,FN
Marsden Building Society,FN
Ecclesiastical Insurance,FN
National Rural Utilities Cooperative Finance Corporation,FN
Markel Corporation,FN
Crown Group Holdings,FN
Groupe Artémis,FN
Shanks Group,FN
Weatherbys,FN
Busan Bank,FN
Bank of Alberta,FN
Wilmington Trust,FN
Confidentcrowd,FN
Manitoba Blue Cross,FN
Irish Bank Resolution Corporation,FN
The Melton Building Society,FN
VBU Volksbank im Unterland eG,FN
Rede S.A.,FN
InsuringIndia,FN
Hinckley and Rugby Building Society,FN
Reynolds Securities,FN
DFJ Frontier,FN
Washington State Employees Credit Union,FN
Higginbotham Insurance & Financial Services,FN
Sun National Bank,FN
Travelodge,FN
Merlin Entertainments,FN
Sandstorm Gold,FN
Cross River Bank,FN
Experian,FN
Melhus Sparebank,FN
Denplan,FN
FOJP Service Corporation,FN
BGC Partners,FN
AXA,FN
Metacafe,FN
British and Commonwealth Holdings,FN
Berne Union,FN
Novation Companies,FN
Shamil Bank of Yemen and Bahrain,FN
SpareBank 1,FN
Insurance Company of North America,FN
Zenith Bank,FN
BinckBank,FN
TDC A/S,FN
