names,type
Bowers & Wilkins,FP
MacMall,FP
RegisterFly,FP
Dencio's,FP
Strathberry,FP
6126 (clothing line),FP
RSM UK,FP
LloydsPharmacy,FP
Blundstone Footwear,FP
Anglo-Eastern Group,FP
Hempel Group,FP
Saizeriya,FP
Pan American World Airways,FP
Dodsal Group,FP
Major Cineplex,FP
ITT Corporation,FP
White Stag (clothing),FP
Kashi (company),FP
Eat (restaurant),FP
MTS Systems Corporation,FP
Good Books International,FP
DKNY,FP
Carfax (company),FP
360 Cashmere,FP
Trendmasters,FP
The Hoxton,FP
Seneca Glass Company,FP
Jenny Hellström,FP
Vibrac Corporation,FP
HJ Martin and Son,FP
Fenercell,FP
ABC Supply,FP
Parachute Type foundry,FP
SongCast Music Distribution,FP
Wolsey (clothing),FP
Crocs,FP
St. John (clothing),FP
T. Marzetti Company,FP
4 Fingers Crispy Chicken,FP
SpotHero,FP
Mostaza,FP
Big Apple Donuts and Coffee,FP
Archon Information Systems,FP
Legion M,FP
The Timberland Company,FP
Wing Wah,FP
Groupe Artémis,FP
Flydubai,FP
Swiss Chalet,FP
Heartland Food Corporation,FP
Ally Capellino,FP
Spreecast,FP
G1 Group,FP
Culinard,FP
Johnston & Murphy,FP
John K. King Books,FP
AJ+,FP
Click Commerce,FP
"Blurb, Inc.",FP
Ridgeback (bicycles),FP
FOJP Service Corporation,FP
Dash (boutique),FP
Origins (cosmetics),FP
Bay Restaurant Group,FP
EasyPizza,FP
SITEX Corporation,FP
Gas Jeans,FP
Famous Stars and Straps,FP
Tombow,FN
Harold's,FN
ThreeSixty,FN
Isetan Mitsukoshi Holdings,FN
H.J. Cave & Sons,FN
My Nametags,FN
Sellers Bros.,FN
Howard Miller Clock Company,FN
"Fashionable, Inc.",FN
Stage dive (company),FN
Veganz,FN
Padini,FN
Finery (company),FN
Mohawk Industries,FN
Market of Choice,FN
Cerno LLC,FN
Rite Rug Flooring,FN
Pandesic,FN
Pitney Bowes,FN
Gandhi (bookstore),FN
Cordova Bay Records,FN
NACCO Industries,FN
Jim Pattison Group,FN
Maathai Supermarkets,FN
"OverDrive, Inc.",FN
The Cope,FN
Skippers Seafood & Chowder House,FN
Crocodile Garments,FN
CBA (food retail),FN
Outdoor Research,FN
Hellenic Duty Free Shops,FN
OfferUp,FN
Stew Leonard's,FN
Anki (Finnish company),FN
Army and Air Force Exchange Service,FN
BayWa,FN
Wegmans,FN
Slazenger,FN
Tedeschi Food Shops,FN
Brine (brand),FN
Daniel Smith (art materials),FN
Lechters Housewares,FN
Westcott scissors and rulers,FN
Active in Style,FN
Eagle Creek (company),FN
Shell Canada,FN
Hatchards,FN
Red Mango,FN
Texas de Brazil,FN
Mighty Ape,FN
PriceSmart Foods,FN
My Food Bag,FN
Emack & Bolio's,FN
Buca di Beppo,FN
Fry's Electronics,FN
Tan Chong Motor,FN
XXL Sport & Villmark,FN
Gamma (store),FN
Xperience Days,FN
Port City Java,FN
ICA Gruppen,FN
Berghaus,FN
Spirit Halloween,FN
Univer-Export,FN
Uny,FN
Komplett,FN
Premier Fruits Group,FN
Innerprise Software,FN
Emperor Watch & Jewellery Limited,FN
Oroton,FN
Mitsuwa Marketplace,FN
Sporting-Sails,FN
KWANPEN,FN
Hipercor,FN
Hallmark Business Expressions,FN
Gazaro,FN
Pace Development,FN
Reebonz,FN
BarkBox,FN
Tekserve,FN
Sears Holdings,FN
Belden Brick Company,FN
SuperBest,FN
Demandware,FN
SIDI,FN
See's Candies,FN
Morrisons,FN
Le Travel Store,FN
Dixons Retail,FN
Tourneau,FN
N Brown Group,FN
Align Aerospace,FN
PostNL,FN
Sanrio,FN
Navy Exchange,FN
Dents,FN
Murray Goulburn Co-operative,FN
Kaufhaus Wronker,FN
Euroflorist,FN
Hamleys,FN
Litho Supplies,FN
Ping (golf),FN
Statoil Fuel & Retail,FN
Duchamp (clothing),FN
Slackers CDs and Games,FN
Megaworld Lifestyle Malls,FN
Victor Value,FN
Phase Eight,FN
Farmcare,FN
CQout,FN
Directline holidays,FN
InsuringIndia,FN
Foyles,FN
"The Cheese Shop, Louth",FN
Booyami,FN
Autobacs Seven,FN
World of Disney,FN
Staple Design,FN
Interpark,FN
Lighthouse Cooperative,FN
Raymond Group,FN
Sharps Bedrooms,FN
Zabar's,FN
Marks & Spencer,FN
Hoorsenbuhs,FN
Biscuiteers,FN
Sleepy Jones,FN
Hyundai Assan Otomotiv,FN
33m2,FN
H Mart,FN
Boku mobile payments,FN
Coop Obs!,FN
Hornbach (hypermarket),FN
Book Soup,FN
Matson Films,FN
