names,type
British Power International,FP
Winzler & Kelly,FP
Wells Fargo Advisors,FP
Axium (company),FP
Stikeman Elliott,FP
IQuate,FP
Nemertes Research,FP
Basho Technologies,FP
Rushmore Reviews,FP
GRAEF,FP
Experian,FP
Endace,FP
SuperCircuits,FP
Tombow,FN
Softline International,FN
Mosaic451,FN
Torry Harris Business Solutions,FN
Kingston Smith,FN
State Printing Company,FN
Meridian Entertainment Group,FN
Biosis Pty Ltd,FN
RSM UK,FN
Dunnhumby,FN
Muller Martini,FN
Electronic Data Systems,FN
Varrow,FN
Electronic Chart Centre,FN
HP Cloud,FN
United States Cyber Command,FN
Nexidia,FN
Cognizant,FN
Federation of International Trade Associations,FN
GP Strategies Corporation,FN
Management Consulting Group,FN
Kronos Incorporated,FN
Broadridge Financial Solutions,FN
Westcott scissors and rulers,FN
F-Secure,FN
Adecco Group North America,FN
G-Log,FN
IAG Consulting,FN
SecureWorks,FN
Orbicon,FN
MHP Communications,FN
Rand Group,FN
Ness Technologies,FN
LogicBoxes,FN
Tekserve,FN
Morrison Hershfield,FN
Lodestone Management Consultants,FN
Serco,FN
Speedball (art products),FN
Outright,FN
Jarvis plc,FN
DCR Workforce,FN
Antex,FN
UOLDIVEO,FN
SignalDemand,FN
Begbies Traynor,FN
NewBornTown,FN
RazorThreat,FN
Berol,FN
SLR Consulting,FN
Information Networking Institute,FN
Faunalytics,FN
Columbitech,FN
Staple Design,FN
MHR (formerly MidlandHR),FN
HCL Axon,FN
Advanced Technical Intelligence Center,FN
Guardian Alarm,FN
Alarm.com,FN
Alpha7,FN
HNW,FN
