names,type
Indian Registry for Internet Names and Numbers,FP
Tanzania Communication Regulatory Authority,FP
MBC 3,FP
Industria Aeronautică Română,FP
AMC Networks International,FP
Lagan Technologies,FP
Chubb Security,FP
MJLF & Associates,FP
Proto Labs,FP
SMT (media corporation),FP
Galaxy (Australian television),FP
ESB Group,FP
PGi,FN
VascoDe Technologies,FN
Pronexus,FN
Global Cloud Xchange,FN
Nfon,FN
Times Internet,FN
Sky Direct,FN
Parallel Infrastructure,FN
CanalDigitaal,FN
Syniverse,FN
The Hong Kong and China Gas Company,FN
Riedel Communications,FN
Toshiba Telecommunication Systems Division,FN
Hutchison Telecommunications Hong Kong Holdings,FN
DoCoMo Pacific,FN
Ontario Telemedicine Network,FN
Orange RDC,FN
Ptcl,FN
PLDT WatchPad,FN
ITT Corporation,FN
M86 Security,FN
Virgin Mobile USA,FN
Zamtel,FN
KORE Wireless,FN
Carso Global Telecom,FN
Wayfinder,FN
AstraQom,FN
Netspace,FN
China Electronics Technology Group,FN
USRobotics,FN
Wire Swiss,FN
Hyperoptic,FN
Caucasus Online,FN
IiNet,FN
Belkin,FN
STET – Società Finanziaria Telefonica,FN
MASCOM,FN
KT Corporation,FN
Hellas Online,FN
Troms Kraft,FN
Internet Group,FN
EE Limited,FN
Terra Networks,FN
AccessKenya Group,FN
Just10,FN
Iristel,FN
Fenercell,FN
Beltelecom,FN
3Com,FN
Vodafone Turkey,FN
Oceanpayment,FN
ZTEsoft,FN
Edge Wireless,FN
Microsoft Mobile,FN
TreeRing,FN
Telekom Srpske,FN
JT Group Limited,FN
Samsung Electro-Mechanics,FN
Telecom Plus,FN
G'Five,FN
Siti Cable,FN
Jaiku,FN
AudioNow,FN
ItsOn,FN
Access Communications,FN
Videocon Telecom,FN
Voom HD Networks,FN
GNC-Alfa,FN
Nic.at,FN
Izzi Telecom,FN
Spacenet,FN
Kordia,FN
Vector Security,FN
Samoa Technologies,FN
Xsigo Systems,FN
Panorama Antennas,FN
Mix & Genest,FN
Rotana Mousica,FN
Harrisonville Telephone Company,FN
Flaunt Kit,FN
