names,type
InterHealth,FP
Cells4Life,FP
Mandela and Tambo,FP
Iowa Atheists and Freethinkers,FP
London Mutual Credit Union,FP
House of Delegates of South Africa,FP
Arts Marketing Association,FP
HM Nautical Almanac Office,FP
Dickinson Dees,FP
Virginia Tech College of Natural Resources and Environment,FP
Adventist Health System,FP
Gesellschaft zur Verfolgung von Urheberrechtsverletzungen e.V.,FP
High Council for Human rights,FP
Society for Vascular Surgery,FP
Spread Co,FP
Ministry of Commerce of the People's Republic of China,FP
Durban Youth Council,FP
Los Angeles Dependency Lawyers,FP
"Underwater Archaeology Branch, Naval History & Heritage Command",FP
Mount Carmel Medical Group,FP
National Academy for Educational Management,FP
National Band Council of Australia,FP
National Board for Higher Mathematics,FP
Special Inspector General for Afghanistan Reconstruction,FP
BBC Janala,FP
Chartered Institute of Public Relations,FP
Berkshire Industrial Farm,FP
Centre for Women's Development Studies,FP
Douglas County search and rescue,FP
Washington State Employees Credit Union,FP
Faunalytics,FP
Lighthouse Cooperative,FP
National Agricultural Law Center,FP
Oxford Lieder Festival,FP
Centre for Excellence in Mining Innovation,FP
Planning Inspectorate,FP
Broadcasting Press Guild,FP
Maranatha Volunteers International,FP
Department of Trade and Industry (United Kingdom),FP
Adventist HealthCare,FP
International Union of Elevator Constructors,FN
Sahodari Foundation,FN
AFL Coaches Association,FN
ABMRF/The Foundation for Alcohol Research,FN
Church Urban Fund,FN
Police Association of New South Wales,FN
Pioneer Works,FN
NSW Business Chamber,FN
Licensing Executives Society-Arab Countries,FN
DMG interpersonal,FN
Radio Harrow,FN
Web Science Trust,FN
Organizing for America,FN
USU Botanical Center,FN
HarborArts,FN
North America Vishwa Kannada Association,FN
London Grid for Learning,FN
Football Against Racism in Europe,FN
Location Managers Guild International,FN
Building and Wood Workers' International,FN
Kudumbashree National Resource Organisation,FN
INJAZ,FN
National Programme on Technology Enhanced Learning,FN
Iranian Teachers' Trade Association,FN
Union of Journalists of Moldova,FN
AFL Umpires Association,FN
ALNAP,FN
NPS MedicineWise,FN
Good Books International,FN
Telugu Association of North America,FN
Normandy Youth Club–The N-Factor,FN
Adalah-NY,FN
Dramatic Need,FN
"Housing and Services, Inc.",FN
EveryoneOn,FN
Design Council,FN
European Technical Assistance Cooperation,FN
NAGE EMS,FN
Chicanos Por La Causa,FN
K11 Art Foundation,FN
HMC Projects in Central and Eastern Europe,FN
Victoria State Emergency Service,FN
Citizens Advice,FN
United EMS Workers – AFSCME Local 4911,FN
Institute for Indian Mother and Child,FN
Southwest Alternate Media Project,FN
American Association of Endodontists,FN
Udaipur Chamber of Commerce and Industry,FN
Panathlon Foundation,FN
Wiltshire Wildlife Trust,FN
Society of Graphic Designers of Canada,FN
Correctiv,FN
Connecticut Public Television,FN
Belgian Co-ordinated Collections of Micro-organisms,FN
The Document Foundation,FN
Association of Spanish Footballers,FN
Asian American Intervarsity Christian Fellowship – University of Washington,FN
AGD Interactive,FN
Robert Connor Dawes Foundation,FN
National Youth Film Academy,FN
Center for Digital Inclusion,FN
Haqqani Anjuman,FN
Mil-OSS,FN
Air Canada Pilots Association,FN
Free and Open Source Silicon Foundation,FN
Vidsich,FN
Victorian Trades Hall Council,FN
Dobrý anjel,FN
Eureka (organization),FN
Market-Based Management Institute,FN
Comhar Dún Chaocháin Teo,FN
Leeds City Credit Union,FN
Teaching for Change,FN
The National Fund,FN
