names,type
Kudremukh Iron Ore Company,FP
Ameren,FP
Golar LNG,FP
Uranium Resources,FP
Talen Energy,FP
Waha Oil Company,FN
Diamond Offshore Drilling,FN
Bashneft-Ufaneftekhim,FN
Barnes family,FN
Manitoba Hydro,FN
Slovnaft,FN
Oman LNG,FN
Nu-West,FN
Svenska Petroleum Exploration AB,FN
National Company of Lignite Oltenia,FN
Gujarat State Petroleum Corporation,FN
The Hong Kong and China Gas Company,FN
Lauren Engineers & Constructors,FN
Elering,FN
Nassau Inter-County Express,FN
BayWa,FN
Grupo Compás,FN
Terpel,FN
Bashneft,FN
Shell Canada,FN
TerraVest,FN
Oando,FN
Exillon Energy,FN
National Petroleum Authority,FN
CorrOcean,FN
Perenco,FN
Snam,FN
Paz Oil Company,FN
ABQ RIDE,FN
North Drilling,FN
Transnet,FN
TGT Oil and Gas Services,FN
Suez (company),FN
Milwaukee County Transit System,FN
Hughes Tool Company,FN
Imperial Oil,FN
Rushmore Reviews,FN
FairfieldNodal,FN
Ultramar,FN
InterOil,FN
Alliant Energy,FN
Foothill Transit,FN
Indorama Ventures,FN
United Shipping & Trading Company,FN
Pricelock,FN
Penn West Exploration,FN
Duke Energy,FN
Ploiești National Coal Company,FN
PetroIran,FN
Argos Energies,FN
McGuire and Hester,FN
