names,type
Sachtleben Chemie,FP
International Harvester,FP
Koreatomy,FP
KAZ Minerals,FP
Senior plc,FP
AAH Pharmaceuticals,FP
Diezel,FP
Avcon,FP
Macro Sea,FP
Ball Aerospace & Technologies,FP
Buck & Hickman,FP
KI Holdings,FP
Dechra Pharmaceuticals,FP
DiaSorin,FP
Litho Supplies,FP
CybAero,FP
Raytheon,FP
China Shipbuilding Industry Corporation,FP
MER MEC,FN
Morgan Solar Inc,FN
RRI Rhein Ruhr International,FN
Priestman Brothers,FN
Siemens Pakistan,FN
Rocket Racing League,FN
Aveos Fleet Performance,FN
Ruselectronics,FN
NPO Saturn,FN
IBI Group,FN
BHEL Jhansi,FN
Evogene,FN
Finetech,FN
TDK,FN
Teichert (company),FN
Parsons Corporation,FN
Cornerstone Construction Group,FN
Safway Services,FN
Lauren Engineers & Constructors,FN
Talascend,FN
Clerget-Blin,FN
Salmson,FN
Conergy,FN
William Fairbairn & Sons,FN
"Grant, Ritchie and Company",FN
Kleinfelder,FN
Tulloch Limited,FN
Maschinenfabrik Liezen und Gießerei,FN
Snøhetta (company),FN
Mennekes,FN
Texas Energy Engineers,FN
Babcock & Wilcox,FN
Yamazaki Mazak Corporation,FN
Enefit Solutions,FN
Envirochemie,FN
Perlini,FN
Premier Automobiles Limited,FN
Nooter/Eriksen,FN
Perry Engineering,FN
Square D,FN
Topray Solar,FN
Martin & Vleminckx,FN
Kayaba Industry,FN
SSL (company),FN
Canadian Pacific Railway,FN
Overaa Construction,FN
Rolls-Royce Holdings,FN
Enarsa,FN
PacWind,FN
Kurgan Wheel Tractor Plant,FN
Manz,FN
Jessop & Company,FN
Ten Fold Engineering,FN
Cleveland Bridge & Engineering Company,FN
GRAEF,FN
David Rowell & Co.,FN
CTLGroup,FN
Superior Walls of America,FN
Urbi,FN
Rossi Residencial,FN
Paxman (engines),FN
Asa Lees,FN
Tadano Faun GmbH,FN
The Grasshopper Company,FN
STX Europe,FN
Huppenkothen Baumaschinen,FN
National Development Complex,FN
George England and Co.,FN
Georgia Tech Research Institute,FN
H. Cegielski – Poznań,FN
Stakhanov Railway Car Building Works,FN
Mix & Genest,FN
Palfinger Marine,FN
Exponent (consulting firm),FN
McGuire and Hester,FN
OKBM Afrikantov,FN
